# This file uses centimeters as units for non-parametric coordinates.

mtllib bullet_enemy_placeholder.mtl
g default
v -0.633523 0.009298 -0.272434
v -0.633523 0.179718 -0.272434
v -0.402462 0.188110 0.177301
v -0.402462 0.179718 -0.428742
v -0.171401 0.179718 -0.272434
v -0.402462 0.009298 -0.428742
v -0.171401 0.009298 -0.272434
v -0.889017 0.009298 -0.083596
v -0.889017 0.173811 -0.083597
v 0.084094 0.009298 -0.083596
v 0.084094 0.173811 -0.083597
v -0.279592 0.000000 0.267256
v -0.525332 0.000000 0.267256
v -0.402462 0.000000 0.235706
v -0.279592 0.153003 0.267256
v -0.402462 0.160732 0.235706
v -0.525332 0.153003 0.267256
v -1.144727 0.009298 0.194600
v -0.680605 -0.000000 0.465099
v -0.680603 0.126703 0.465100
v -1.144728 0.188458 0.194600
v -0.124320 0.126703 0.465101
v -0.124320 0.000000 0.465101
v 0.339804 0.009298 0.194600
v 0.339804 0.188458 0.194600
v -1.176099 0.000000 0.781270
v -0.643257 -0.000000 0.621974
v -0.643256 0.106001 0.621975
v -1.176100 0.197756 0.781270
v -0.161668 0.106001 0.621976
v -0.161668 0.000000 0.621976
v 0.371176 0.000000 0.781270
v 0.371176 0.197756 0.781269
v -0.934333 0.000000 1.241729
v -0.517167 0.027921 0.865035
v -0.517166 0.080818 0.865035
v -0.934333 0.160809 1.241729
v -0.287758 0.080818 0.865035
v -0.287757 0.027921 0.865035
v 0.129409 0.000000 1.241729
v 0.129410 0.160809 1.241728
vt 0.384924 0.232955
vt 0.349689 0.275239
vt 0.303092 0.224706
vt 0.332569 0.189330
vt 0.458412 0.290757
vt 0.415864 0.341819
vt 0.228978 0.148710
vt 0.243688 0.131057
vt 0.125737 0.016985
vt 0.081018 0.070653
vt 0.122298 0.578515
vt 0.049335 0.578352
vt 0.046083 0.339080
vt 0.126619 0.339260
vt 0.115989 0.732387
vt 0.048991 0.732238
vt 0.046556 0.127280
vt 0.112046 0.127427
vt 0.118105 0.861779
vt 0.048701 0.861624
vt 0.048447 0.975233
vt 0.117851 0.975388
vt 0.665312 0.271228
vt 0.630904 0.228267
vt 0.684095 0.185666
vt 0.712881 0.221608
vt 0.602854 0.340629
vt 0.561305 0.288751
vt 0.774090 0.129129
vt 0.788455 0.147064
vt 0.894232 0.017368
vt 0.937901 0.071893
vt 0.964935 0.567112
vt 0.894926 0.568312
vt 0.887358 0.338799
vt 0.964634 0.337474
vt 0.967466 0.714766
vt 0.903180 0.715868
vt 0.898313 0.135328
vt 0.961151 0.134251
vt 0.969594 0.838913
vt 0.903000 0.840055
vt 0.904868 0.949063
vt 0.971462 0.947922
vt 0.401059 0.919131
vt 0.506407 0.714083
vt 0.611755 0.919131
vt 0.506407 0.990397
vt 0.284571 0.833034
vt 0.450387 0.673070
vt 0.506407 0.687455
vt 0.562427 0.673070
vt 0.728243 0.833034
vt 0.167985 0.706196
vt 0.379594 0.582866
vt 0.633220 0.582866
vt 0.844829 0.706196
vt 0.153681 0.438715
vt 0.396621 0.511342
vt 0.616192 0.511342
vt 0.859132 0.438715
vt 0.263910 0.228777
vt 0.454110 0.400524
vt 0.558704 0.400524
vt 0.748904 0.228778
vt 0.506880 0.327710
vt 0.462182 0.381352
vt 0.517126 0.328875
vt 0.560774 0.383373
vn 0.670186 -0.000003 0.742193
vn 0.670186 -0.000003 0.742193
vn 0.670186 -0.000003 0.742193
vn 0.670186 -0.000003 0.742193
vn -0.024700 0.999432 0.022939
vn 0.000000 0.998308 0.058150
vn 0.024700 0.999432 0.022939
vn -0.000000 0.999904 -0.013845
vn 0.560315 -0.000000 -0.828280
vn 0.578329 -0.000000 -0.815804
vn 0.578430 -0.000000 -0.815732
vn 0.560315 -0.000000 -0.828279
vn -0.670186 0.000002 0.742193
vn -0.670186 0.000002 0.742193
vn -0.670186 0.000002 0.742193
vn -0.670186 0.000002 0.742193
vn -0.560315 0.000000 -0.828279
vn -0.578430 -0.000000 -0.815732
vn -0.578329 -0.000000 -0.815804
vn -0.560315 0.000000 -0.828279
vn -0.058833 0.995535 0.073816
vn -0.058833 0.995535 0.073816
vn 0.000000 0.997262 0.073944
vn -0.594378 -0.000000 -0.804186
vn -0.594378 -0.000000 -0.804186
vn 0.594378 -0.000000 -0.804186
vn 0.594378 -0.000000 -0.804186
vn 0.058833 0.995535 0.073816
vn 0.058833 0.995535 0.073816
vn 0.786660 -0.000008 0.617387
vn 0.786660 -0.000008 0.617387
vn 0.786660 -0.000008 0.617387
vn 0.786660 -0.000008 0.617387
vn 0.049199 0.996548 0.066870
vn 0.049199 0.996548 0.066870
vn 0.049199 0.996548 0.066870
vn 0.049199 0.996548 0.066870
vn -0.736236 -0.000001 -0.676725
vn -0.736236 -0.000001 -0.676725
vn -0.736236 -0.000001 -0.676725
vn -0.736236 -0.000001 -0.676725
vn -0.786661 -0.000000 0.617385
vn -0.786661 -0.000000 0.617385
vn -0.786661 -0.000000 0.617385
vn -0.786661 -0.000000 0.617385
vn 0.736235 -0.000001 -0.676725
vn 0.736236 -0.000001 -0.676725
vn 0.736236 -0.000001 -0.676725
vn 0.736235 -0.000001 -0.676726
vn -0.049199 0.996548 0.066870
vn -0.049199 0.996548 0.066870
vn -0.049199 0.996548 0.066870
vn -0.049199 0.996548 0.066870
vn 0.972811 -0.000008 -0.231600
vn 0.972811 -0.000008 -0.231600
vn 0.972811 -0.000008 -0.231600
vn 0.972811 -0.000008 -0.231600
vn 0.150648 0.988489 0.013950
vn 0.150648 0.988489 0.013950
vn 0.150648 0.988489 0.013950
vn 0.150648 0.988489 0.013950
vn -0.998573 -0.000002 -0.053398
vn -0.998573 -0.000002 -0.053398
vn -0.998573 -0.000002 -0.053398
vn -0.998573 -0.000002 -0.053398
vn -0.972811 -0.000002 -0.231600
vn -0.972811 -0.000002 -0.231600
vn -0.972811 -0.000002 -0.231600
vn -0.972811 -0.000002 -0.231600
vn 0.998573 -0.000001 -0.053398
vn 0.998573 -0.000001 -0.053398
vn 0.998573 -0.000001 -0.053398
vn 0.998573 -0.000001 -0.053398
vn -0.150648 0.988489 0.013950
vn -0.150648 0.988489 0.013950
vn -0.150648 0.988489 0.013950
vn -0.150648 0.988489 0.013950
vn 0.887667 -0.000005 -0.460487
vn 0.887667 -0.000005 -0.460487
vn 0.887667 -0.000005 -0.460487
vn 0.887667 -0.000005 -0.460487
vn 0.175316 0.984501 -0.004725
vn 0.175316 0.984501 -0.004725
vn 0.175316 0.984501 -0.004725
vn 0.175316 0.984501 -0.004725
vn -0.885378 -0.000001 0.464872
vn -0.885378 -0.000001 0.464872
vn -0.885378 -0.000001 0.464872
vn -0.885378 -0.000001 0.464872
vn -0.887666 -0.000002 -0.460487
vn -0.887666 -0.000002 -0.460487
vn -0.887666 -0.000002 -0.460487
vn -0.887666 -0.000002 -0.460487
vn 0.885378 0.000000 0.464872
vn 0.885378 0.000000 0.464872
vn 0.885378 0.000000 0.464872
vn 0.885378 0.000000 0.464872
vn -0.175316 0.984501 -0.004725
vn -0.175316 0.984501 -0.004725
vn -0.175316 0.984501 -0.004725
vn -0.175316 0.984501 -0.004725
vn 0.248708 -0.000001 0.968579
vn 0.248708 -0.000001 0.968579
vn 0.248708 -0.000001 0.968579
vn 0.248708 -0.000001 0.968579
vn -0.248708 -0.000001 0.968579
vn -0.248708 -0.000001 0.968579
vn -0.248708 -0.000001 0.968579
vn -0.248708 -0.000001 0.968579
s off
g bullet_enemy
usemtl lambert2SG
f 34/9/1 35/8/2 36/7/3 37/10/4
s 1
f 2/45/5 3/46/6 5/47/7 4/48/8
s 2
f 4/43/9 5/42/10 7/41/11 6/44/12
s off
f 38/30/13 39/29/14 40/31/15 41/32/16
s 3
f 6/21/17 1/20/18 2/19/19 4/22/20
s 1
f 3/46/6 2/45/5 9/49/21 17/50/22 16/51/23
s 3
f 2/19/19 1/20/18 8/16/24 9/15/25
s 2
f 7/41/11 5/42/10 11/38/26 10/37/27
s 1
f 5/47/7 3/46/6 16/51/23 15/52/28 11/53/29
s off
f 13/5/30 17/6/31 20/2/32 19/1/33
f 17/50/34 9/49/35 21/54/36 20/55/37
f 9/15/38 8/16/39 18/12/40 21/11/41
f 15/27/42 12/28/43 23/24/44 22/23/45
f 10/37/46 11/38/47 25/34/48 24/33/49
f 11/53/50 15/52/51 22/56/52 25/57/53
f 19/1/54 20/2/55 28/3/56 27/4/57
f 20/55/58 21/54/59 29/58/60 28/59/61
f 21/11/62 18/12/63 26/13/64 29/14/65
f 22/23/66 23/24/67 31/25/68 30/26/69
f 24/33/70 25/34/71 33/35/72 32/36/73
f 25/57/74 22/56/75 30/60/76 33/61/77
f 27/4/78 28/3/79 36/7/80 35/8/81
f 28/59/82 29/58/83 37/62/84 36/63/85
f 29/14/86 26/13/87 34/17/88 37/18/89
f 30/26/90 31/25/91 39/29/92 38/30/93
f 32/36/94 33/35/95 41/39/96 40/40/97
f 33/61/98 30/60/99 38/64/100 41/65/101
f 13/5/102 14/66/103 16/67/104 17/6/105
f 14/68/106 12/28/107 15/27/108 16/69/109
