# This file uses centimeters as units for non-parametric coordinates.

mtllib Enemy_ship leelotus.mtl
g default
v -2.537750 -0.203226 6.343036
v 2.537750 -0.203226 6.443446
v -2.537750 0.077261 6.343036
v 2.537750 0.093361 6.443446
v -2.537750 0.077261 4.290048
v 2.537750 0.093361 4.290048
v -1.486773 -0.203226 7.379249
v -1.486773 0.240200 7.379249
v -1.634794 0.240200 4.290048
v 1.753514 -0.143177 7.468166
v 1.753514 0.158704 7.468166
v -0.540313 0.049450 6.861389
v -0.538605 0.057278 6.861389
v 0.777384 0.049450 6.861389
v 0.780237 0.057104 6.863281
v -1.634794 0.203226 3.482922
v -0.438604 0.011763 6.043706
v -0.438604 0.203226 6.043706
v 0.648090 0.011763 6.043706
v 0.648090 0.201141 6.043706
v 2.861154 -0.203226 6.064722
v 2.861154 0.061546 3.911320
v 2.861154 0.061546 6.064722
v -2.861154 -0.203226 5.964312
v -2.861154 0.013753 5.964312
v -2.861154 0.013753 3.911320
v -1.089292 -0.203226 7.016796
v -1.089292 0.477609 7.016796
v -1.089292 0.477609 4.290048
v -1.089292 0.298046 3.094133
v 1.244164 -0.203226 7.004022
v 1.244164 0.466241 7.004022
v -1.486773 -0.203226 7.379249
v -1.486773 0.240200 7.379249
v -1.089292 0.382788 7.016796
v -1.486773 -0.203226 7.379249
v -1.486773 0.240200 7.379249
v -1.089292 0.382788 7.016796
v 1.244164 0.371420 7.004022
v 1.753514 0.158704 7.468166
v -1.486773 0.087636 7.379249
v -1.089292 0.106160 7.016796
v 1.753514 0.050296 7.468166
v 1.244164 0.082197 7.004022
v -1.486773 -0.152659 7.379249
v -1.089291 -0.148192 7.016796
v 1.244164 -0.141357 7.004015
v -1.486773 0.087636 7.213815
v -1.089292 0.106160 6.851362
v -1.486773 -0.152659 7.213815
v -1.089292 -0.148192 6.851362
v 1.753514 0.050297 7.302739
v 1.244163 0.082197 6.838588
v 1.244163 -0.141357 6.838588
v 1.753514 -0.148279 7.302739
v 2.599291 -0.203226 6.371390
v 2.599291 0.087307 6.371390
v 2.599291 0.087307 4.217979
v 2.817720 -0.203226 6.115593
v 2.817720 0.065819 6.115593
v 2.817720 0.065819 3.962183
v -1.486773 0.163353 7.379249
v -2.537750 0.028651 6.343036
v -2.861154 -0.023851 5.964312
v 2.861154 0.015660 6.064722
v 2.817720 0.019192 6.115593
v 2.599291 0.036956 6.371390
v 2.537750 0.041961 6.443446
v -2.537750 -0.146815 6.343036
v -2.861154 -0.159588 5.964312
v 2.861154 -0.149976 6.064722
v 2.817720 -0.149116 6.115593
v 2.599291 -0.144794 6.371390
v 2.537750 -0.143577 6.443446
v -2.820924 0.021653 3.958430
v -2.820924 0.021653 6.011414
v -2.820924 -0.017320 6.011414
v -2.820924 -0.157999 6.011414
v -2.820924 -0.203226 6.011414
v -2.607746 0.063515 4.208078
v -2.607746 0.063515 6.261067
v -2.607746 0.017288 6.261067
v -2.607746 -0.149579 6.261067
v -2.607746 -0.203226 6.261067
v 0.431016 0.201141 6.043706
v -0.212586 0.203226 6.043706
v 0.348066 0.203226 5.092063
v 0.339878 0.231265 5.423691
v -0.142685 0.203226 5.064033
v -0.158633 0.203226 5.423691
v 0.348066 0.113841 5.037232
v -0.142685 0.113841 5.037232
v -0.089175 0.203226 5.037232
v -0.001390 0.203226 5.037232
v 0.102391 0.203226 5.037232
v 0.198330 0.203226 5.037232
v 0.292202 0.203226 5.037232
v 0.735231 0.018981 6.200315
v 0.738832 0.164170 6.253586
v 0.746704 0.026805 6.370077
v -0.518505 0.171939 6.219005
v -0.514971 0.017051 6.158437
v -0.524330 0.024444 6.318831
v -1.486773 -0.203226 7.379249
v -1.486773 0.240200 7.379249
v 0.431016 0.201141 6.043706
v 0.648090 0.201141 6.043706
v 0.738832 0.164170 6.253586
v 0.780237 0.057104 6.863281
v 0.779911 0.103566 6.366656
v 0.703355 0.298585 4.290048
v -0.486313 0.309954 4.290048
v -0.234039 0.203226 4.572914
v -0.234039 0.203226 3.483257
v 0.101389 0.203226 4.797337
v -1.089292 0.477609 4.290048
v -1.089292 0.477609 7.016796
v -0.538605 0.057278 6.861389
v -0.555986 0.114368 6.280405
v -0.486313 0.309954 4.290048
v -1.089292 0.298046 3.094133
v -1.089292 0.477609 4.290048
v -0.486313 0.304617 4.249709
v -0.486313 0.203226 3.483089
v -0.212586 0.203226 6.043706
v -0.234039 0.203226 4.572914
v -0.486313 0.309954 4.290048
v -0.555986 0.114368 6.280405
v -0.538605 0.057278 6.861389
v -0.518505 0.171939 6.219005
v -0.438604 0.203226 6.043706
v 0.348066 0.203226 5.092063
v 0.339878 0.231265 5.423691
v 0.431016 0.201141 6.043706
v 0.437987 0.203805 4.572914
v -0.234039 0.203226 4.572914
v -0.212586 0.203226 6.043706
v -0.158633 0.203226 5.423691
v -0.142685 0.203226 5.064033
v -0.089175 0.203226 5.037232
v -0.001390 0.203226 5.037232
v 0.102391 0.203226 5.037232
v 0.198330 0.203226 5.037232
v 0.292202 0.203226 5.037232
v 0.437987 0.203805 4.572914
v -0.234039 0.203226 4.572914
v 0.437987 0.203805 4.572914
v -0.234039 0.203226 4.572914
v 0.339878 0.231265 5.423691
v -0.158633 0.203226 5.423691
v -0.234039 0.203226 4.463949
v 0.437987 0.203805 4.572914
v 0.437987 0.203805 4.572914
v 0.101389 0.203226 4.797337
v 0.101389 0.203226 4.797337
v 1.771746 0.158704 4.290048
v 1.753514 0.158704 7.468166
v 2.537750 0.093361 6.443446
v 2.537750 0.093361 4.290048
v 0.703355 0.298585 4.290048
v 0.779911 0.103566 6.366656
v 0.780237 0.057104 6.863281
v 1.244164 0.466241 7.004022
v 1.244164 0.466241 4.290048
v 0.703355 0.293817 4.249709
v 1.244164 0.466241 4.290048
v 1.244164 0.298046 3.094133
v 0.703355 0.203226 3.483089
v 0.438541 0.203747 4.463949
v 0.703355 0.293817 4.249709
v 0.703355 0.203226 3.483089
v 0.443525 0.203226 3.483257
v 1.244164 0.466241 4.290048
v 1.244164 0.466241 7.004022
v 1.753514 0.158704 7.468166
v 1.771746 0.158704 4.290048
v 1.244164 0.298046 3.094133
v 1.244164 0.466241 4.290048
v 1.771746 0.158704 4.290048
v 1.771746 0.203226 3.482922
v 0.437987 0.203805 4.572914
v 0.703355 0.298585 4.290048
v 0.703355 0.293817 4.249709
v 0.438541 0.203747 4.463949
v 0.437987 0.203805 4.572914
v 0.438541 0.203747 4.463949
v -0.234039 0.203226 4.463949
v -0.234039 0.203226 4.572914
v 1.753514 0.158704 7.468166
v 0.703355 0.298585 4.290048
v 1.244164 0.466241 4.290048
v 0.703355 0.293817 4.249709
vt 0.044707 0.404176
vt 0.170122 0.186954
vt 0.091351 0.465180
vt 0.260588 0.298320
vt 0.236752 0.795768
vt 0.091351 0.795768
vt 0.324593 0.356685
vt 0.324593 0.795768
vt 0.250928 0.233609
vt 0.095822 0.433687
vt 0.908649 0.449011
vt 0.086964 0.428573
vt 0.908649 0.795768
vt 0.054987 0.410111
vt 0.569406 0.513379
vt 0.604361 0.513379
vt 0.393553 0.255329
vt 0.618973 0.479584
vt 0.625640 0.381406
vt 0.625588 0.461376
vt 0.402172 0.220719
vt 0.613260 0.795768
vt 0.250926 0.233605
vt 0.223130 0.217555
vt 0.271760 0.140436
vt 0.324593 0.988343
vt 0.322172 0.169541
vt 0.811948 0.228034
vt 0.851286 0.205332
vt 0.957185 0.359196
vt 0.945020 0.366219
vt 0.907180 0.388066
vt 0.896697 0.394118
vt 0.668332 0.174202
vt 0.952515 0.378627
vt 0.964431 0.371747
vt 0.047119 0.422576
vt 0.037343 0.416932
vt 0.339451 0.179514
vt 0.215380 0.107885
vt 0.691657 0.034513
vt 0.692740 0.033202
vt 0.794230 0.101786
vt 0.804837 0.095605
vt 0.170122 0.186954
vt 0.236752 0.925737
vt 0.322172 0.169541
vt 0.170123 0.186954
vt 0.179337 0.192271
vt 0.225407 0.113674
vt 0.754886 0.125250
vt 0.687671 0.163037
vt 0.421690 0.795768
vt 0.462313 0.750218
vt 0.462313 0.767764
vt 0.791028 0.241871
vt 0.260855 0.141046
vt 0.222146 0.204256
vt 0.191316 0.186741
vt 0.421690 0.802263
vt 0.230135 0.123658
vt 0.918559 0.460614
vt 0.808926 0.206155
vt 0.770136 0.127908
vt 0.918559 0.807373
vt 0.080079 0.808967
vt 0.080079 0.478379
vt 0.324593 0.795768
vt 0.324593 0.356685
vt 0.413269 0.381710
vt 0.410471 0.475265
vt 0.421690 0.795768
vt 0.324593 0.988343
vt 0.324593 0.795768
vt 0.421690 0.925710
vt 0.953732 0.501805
vt 0.424419 0.219779
vt 0.424683 0.261841
vt 0.599788 0.217739
vt 0.323495 0.042195
vt 0.600050 0.259343
vt 0.565018 0.259750
vt 0.461158 0.261416
vt 0.628727 0.218678
vt 0.636898 0.250791
vt 0.656155 0.221104
vt 0.735521 0.228020
vt 0.735829 0.229815
vt 0.289081 0.236760
vt 0.289011 0.235002
vt 0.376326 0.223980
vt 0.784566 0.124305
vt 0.830901 0.198552
vt 0.979115 0.422666
vt 0.990151 0.416294
vt 0.984405 0.431423
vt 0.995265 0.425153
vt 0.085953 0.444997
vt 0.077528 0.440133
vt 0.935280 0.447974
vt 0.944790 0.442484
vt 0.950625 0.450926
vt 0.941266 0.456329
vt 0.905178 0.405957
vt 0.915447 0.400028
vt 0.043369 0.481985
vt 0.048792 0.475341
vt 0.055894 0.479442
vt 0.050222 0.485942
vt 0.018633 0.467704
vt 0.023155 0.460539
vt 0.014913 0.455781
vt 0.010681 0.463112
vt 0.786859 0.091042
vt 0.666191 0.160709
vt 0.322076 0.041742
vt 0.230333 0.106664
vt 0.791028 0.241871
vt 0.339987 0.169973
vt 0.170122 0.186954
vt 0.250926 0.233607
vt 0.250928 0.233609
vt 0.953732 0.848563
vt 0.960727 0.509996
vt 0.960727 0.856753
vt 0.045751 0.518580
vt 0.045751 0.849167
vt 0.039273 0.856753
vt 0.039273 0.526165
vt 0.465768 0.513379
vt 0.462313 0.750218
vt 0.421690 0.795768
vt 0.410471 0.475265
vt 0.413269 0.381710
vt 0.416506 0.485152
vt 0.429372 0.513379
vt 0.556048 0.666620
vt 0.554730 0.613219
vt 0.569406 0.513379
vt 0.570528 0.750218
vt 0.516326 0.714080
vt 0.462313 0.750218
vt 0.465768 0.513379
vt 0.474456 0.613219
vt 0.477024 0.671134
vt 0.485640 0.675450
vt 0.499776 0.675450
vt 0.516488 0.675450
vt 0.531937 0.675450
vt 0.547053 0.675450
vt 0.465768 0.513379
vt 0.569406 0.513379
vt 0.554730 0.613219
vt 0.474456 0.613219
vt 0.683126 0.316518
vt 0.630679 0.348673
vt 0.626013 0.365878
vt 0.604873 0.324938
vt 0.563209 0.323641
vt 0.520228 0.322662
vt 0.472446 0.323019
vt 0.429913 0.330062
vt 0.410795 0.350446
vt 0.412781 0.366665
vt 0.570528 0.750218
vt 0.462313 0.750218
vt 0.347812 0.331380
vt 0.462313 0.925683
vt 0.570528 0.750218
vt 0.570528 0.750218
vt 0.516326 0.714080
vt 0.785301 0.795768
vt 0.782365 0.284002
vt 0.908649 0.449011
vt 0.908649 0.795768
vt 0.613260 0.795768
vt 0.625588 0.461376
vt 0.625640 0.381406
vt 0.700346 0.358743
vt 0.700346 0.795768
vt 0.613260 0.802263
vt 0.700346 0.795768
vt 0.700346 0.988343
vt 0.613260 0.925710
vt 0.570617 0.767764
vt 0.613260 0.802263
vt 0.613260 0.925710
vt 0.571420 0.925683
vt 0.700346 0.795768
vt 0.700346 0.358743
vt 0.782365 0.284002
vt 0.785301 0.795768
vt 0.700346 0.988343
vt 0.700346 0.795768
vt 0.785301 0.795768
vt 0.785301 0.925737
vt 0.570528 0.750218
vt 0.613260 0.795768
vt 0.613260 0.802263
vt 0.570617 0.767764
vt 0.570528 0.750218
vt 0.570617 0.767764
vt 0.462313 0.767764
vt 0.462313 0.750218
vt 0.791028 0.241871
vt 0.613260 0.795768
vt 0.700346 0.795768
vt 0.700346 0.795768
vt 0.613260 0.802263
vn -0.702087 0.000000 0.712091
vn -0.702087 0.000000 0.712091
vn -0.702087 0.000000 0.712091
vn -0.702087 0.000000 0.712091
vn -0.702087 0.000000 0.712091
vn -0.702087 0.000000 0.712091
vn -0.167438 0.985871 0.004723
vn -0.292316 0.956290 0.007756
vn -0.279071 0.960248 -0.006532
vn -0.169117 0.985586 0.004409
vn 0.673797 0.000000 0.738917
vn 0.673797 0.000000 0.738917
vn 0.673797 0.000000 0.738917
vn 0.673797 0.000000 0.738917
vn -0.446216 0.894853 0.011357
vn -0.414694 0.909769 -0.018699
vn 0.794124 0.000000 0.607756
vn 0.794124 0.000000 0.607756
vn 0.794124 0.000000 0.607756
vn 0.794124 0.000000 0.607756
vn 0.794124 0.000000 0.607756
vn 0.794124 0.000000 0.607756
vn 0.794124 0.000000 0.607756
vn 0.084192 0.996450 0.000288
vn 0.084192 0.996450 0.000288
vn 0.084192 0.996450 0.000288
vn 0.084192 0.996450 0.000288
vn 0.985873 -0.038724 0.162957
vn 0.969098 -0.047775 0.242005
vn 0.112306 -0.009290 0.993630
vn 0.103913 -0.008596 0.994549
vn 0.033119 0.998804 0.035978
vn 0.033119 0.998804 0.035978
vn 0.033119 0.998804 0.035978
vn 0.033119 0.998804 0.035978
vn 0.033119 0.998804 0.035978
vn 0.033119 0.998804 0.035978
vn 0.033119 0.998804 0.035978
vn -0.428480 0.000810 0.903551
vn -0.542666 0.002798 0.839944
vn -0.291046 -0.001447 0.956708
vn -0.291046 -0.001447 0.956708
vn -0.507678 0.860314 0.046085
vn -0.507678 0.860314 0.046085
vn -0.507678 0.860314 0.046085
vn -0.507678 0.860314 0.046085
vn -0.507678 0.860314 0.046085
vn -0.322797 0.940986 -0.101725
vn -0.322797 0.940986 -0.101725
vn -0.275947 0.952924 -0.125656
vn -0.275947 0.952924 -0.125656
vn -0.275947 0.952924 -0.125656
vn -0.275947 0.952924 -0.125656
vn -0.135350 -0.008889 0.990758
vn -0.125542 -0.008245 0.992054
vn -0.000000 0.000000 1.000000
vn -0.000000 0.000000 1.000000
vn -0.963518 -0.025551 0.266423
vn -0.979599 -0.012454 0.200576
vn 0.408404 0.912219 -0.032604
vn 0.408404 0.912219 -0.032604
vn 0.255280 0.965454 -0.052264
vn 0.227159 0.972267 -0.055635
vn -0.189453 0.980529 -0.051670
vn -0.189453 0.980529 -0.051670
vn -0.189453 0.980529 -0.051670
vn -0.189453 0.980529 -0.051670
vn 0.097904 0.995196 0.000000
vn 0.097904 0.995196 0.000000
vn 0.097903 0.995196 0.000000
vn 0.097903 0.995196 0.000000
vn 0.760455 0.000000 0.649390
vn 0.760407 0.000000 0.649447
vn 0.760408 0.000000 0.649446
vn 0.760455 0.000000 0.649391
vn -0.760462 0.000000 0.649382
vn -0.760463 0.000000 0.649381
vn -0.760471 0.000000 0.649372
vn -0.760471 0.000000 0.649372
vn -0.192694 0.981259 0.000000
vn -0.192694 0.981259 0.000000
vn 0.271893 -0.000675 0.962327
vn 0.271893 -0.000675 0.962327
vn 0.444088 -0.005210 0.895968
vn 0.472913 -0.005992 0.881089
vn 0.467677 0.882723 0.045589
vn 0.467677 0.882723 0.045589
vn 0.467677 0.882723 0.045589
vn 0.467677 0.882723 0.045589
vn 0.467677 0.882723 0.045589
vn 0.252359 0.957868 -0.137127
vn 0.252359 0.957868 -0.137127
vn 0.252359 0.957868 -0.137127
vn 0.252359 0.957868 -0.137127
vn -0.673550 0.000078 0.739142
vn -0.673550 0.000078 0.739142
vn -0.673550 0.000078 0.739142
vn 0.509645 0.860384 0.001577
vn 0.509645 0.860384 0.001577
vn 0.509645 0.860384 0.001577
vn 0.509645 0.860384 0.001577
vn 0.374031 0.925654 -0.057152
vn 0.374031 0.925654 -0.057152
vn 0.374031 0.925654 -0.057152
vn 0.374031 0.925654 -0.057152
vn 0.000000 0.000000 0.000000
vn 0.000000 0.000000 0.000000
vn 0.000000 0.000000 0.000000
vn -0.000000 0.000000 -0.000000
vn -0.000000 0.000000 -0.000000
vn -0.999930 0.000000 -0.011852
vn 0.673797 0.000000 0.738916
vn 0.000000 0.000000 0.000000
vn 0.000000 0.000000 0.000000
vn 0.673797 0.000000 0.738916
vn 0.000000 0.000000 0.000000
vn 1.000000 0.000000 0.000000
vn 0.000000 0.000000 0.000000
vn 0.000000 0.000000 0.000000
vn 1.000000 0.000000 0.000000
vn 1.000000 0.000000 0.000000
vn 0.000000 0.000000 0.000000
vn 0.000000 0.000000 0.000000
vn 0.000000 0.000000 0.000000
vn 0.000000 0.000000 0.000000
vn 0.000000 0.000000 -0.000000
vn 0.000000 0.000000 -0.000000
vn 0.000000 0.000000 -0.000000
vn 0.996813 0.000000 -0.079780
vn 0.996813 0.000000 -0.079780
vn 0.000000 0.000000 -0.000000
vn 0.000000 0.000000 -0.000000
vn 0.998120 0.000001 -0.061285
vn 0.998120 0.000001 -0.061285
vn 0.998120 0.000001 -0.061285
vn -0.000000 0.000000 0.000000
vn -0.673545 0.000000 0.739146
vn -0.673545 0.000000 0.739146
vn -0.000000 0.000000 0.000000
vn 0.673798 0.000000 0.738915
vn 0.673798 0.000000 0.738915
vn 0.673798 0.000000 0.738915
vn 0.673798 0.000000 0.738915
vn -0.673546 0.000000 0.739146
vn -0.673546 0.000000 0.739146
vn -0.673546 0.000000 0.739146
vn -0.673546 0.000000 0.739146
vn 0.673797 0.000000 0.738917
vn 0.673797 0.000000 0.738917
vn 0.673797 0.000000 0.738917
vn 0.673797 0.000000 0.738916
vn -0.673550 0.000000 0.739141
vn -0.673551 0.000000 0.739141
vn -0.673550 0.000000 0.739141
vn -0.673550 0.000000 0.739141
vn 0.046554 -0.998916 -0.000000
vn 0.046554 -0.998916 -0.000000
vn 0.046554 -0.998916 -0.000000
vn 0.046554 -0.998916 -0.000000
vn 1.000000 0.000000 0.000000
vn 1.000000 0.000000 0.000000
vn 1.000000 0.000000 0.000000
vn 1.000000 0.000000 0.000000
vn -1.000000 -0.000001 0.000001
vn -1.000000 -0.000001 0.000001
vn -1.000000 -0.000001 0.000001
vn -1.000000 -0.000001 0.000001
vn -0.062507 -0.998045 -0.000001
vn -0.062507 -0.998045 -0.000001
vn -0.062507 -0.998045 -0.000001
vn -0.062507 -0.998044 -0.000001
vn 1.000000 -0.000000 -0.000001
vn 1.000000 -0.000000 -0.000001
vn 1.000000 -0.000000 -0.000001
vn 1.000000 -0.000000 -0.000001
vn -1.000000 0.000000 0.000003
vn -1.000000 0.000000 0.000003
vn -1.000000 0.000000 0.000003
vn -1.000000 0.000000 0.000003
vn 0.760476 0.000000 0.649366
vn 0.760475 0.000000 0.649367
vn 0.097903 0.995196 0.000000
vn 0.097903 0.995196 0.000000
vn 0.760507 0.000000 0.649329
vn 0.760506 0.000000 0.649331
vn 0.097904 0.995196 0.000000
vn 0.097904 0.995196 0.000000
vn -0.760471 0.000000 0.649373
vn -0.760471 0.000000 0.649372
vn -0.760462 0.000000 0.649382
vn -0.760460 0.000000 0.649385
vn 0.760475 0.000000 0.649368
vn 0.760475 0.000000 0.649367
vn 0.760508 0.000000 0.649329
vn 0.760507 0.000000 0.649329
vn 0.760454 0.000000 0.649392
vn 0.760455 0.000000 0.649391
vn 0.760406 0.000000 0.649448
vn 0.760407 0.000000 0.649447
vn -0.192694 0.981259 0.000000
vn -0.192693 0.981259 0.000000
vn -0.192693 0.981259 0.000000
vn -0.192693 0.981259 0.000000
vn -0.760402 0.000000 0.649453
vn -0.760465 0.000000 0.649379
vn -0.760465 0.000000 0.649379
vn -0.760399 0.000000 0.649457
vn -0.760403 0.000000 0.649452
vn -0.760464 0.000000 0.649380
vn -0.760464 0.000000 0.649380
vn -0.760402 0.000000 0.649452
vn -0.011658 0.999203 0.038169
vn -0.011658 0.999203 0.038169
vn -0.011658 0.999203 0.038169
vn -0.011658 0.999203 0.038169
vn -0.011658 0.999203 0.038169
vn -0.011658 0.999203 0.038169
vn -0.011658 0.999203 0.038169
vn 0.039691 0.999208 -0.002763
vn 0.039691 0.999208 -0.002763
vn 0.039691 0.999208 -0.002763
vn 0.039691 0.999208 -0.002763
vn 0.039691 0.999208 -0.002763
vn 0.039691 0.999208 -0.002763
vn 0.039691 0.999208 -0.002763
vn 0.039691 0.999208 -0.002763
vn 0.039691 0.999208 -0.002763
vn 0.039691 0.999208 -0.002763
vn 0.039691 0.999208 -0.002763
vn 0.039691 0.999208 -0.002763
vn 0.039691 0.999208 -0.002763
vn 0.039691 0.999208 -0.002763
vn -0.022713 0.999430 0.024960
vn -0.022713 0.999430 0.024960
vn -0.022713 0.999430 0.024960
vn -0.022713 0.999430 0.024960
vn -0.999534 0.015967 -0.026029
vn -0.999534 0.015967 -0.026029
vn -0.999534 0.015967 -0.026029
vn -0.028510 -0.051173 0.998283
vn -0.028510 -0.051173 0.998283
vn -0.028510 -0.051173 0.998283
vn -0.028510 -0.051173 0.998283
vn -0.028510 -0.051173 0.998283
vn -0.028510 -0.051173 0.998283
vn -0.028510 -0.051173 0.998283
vn -0.028510 -0.051173 0.998283
vn -0.028510 -0.051173 0.998283
vn -0.000862 0.999999 0.001288
vn -0.000862 0.999999 0.001288
vn -0.000862 0.999999 0.001288
vn -0.000000 0.000000 0.000000
vn -0.000862 0.999999 0.001288
vn -0.000862 0.999999 0.001288
vn -0.000000 0.000000 0.000000
vn -0.997666 0.013746 0.066888
vn 0.999115 -0.023764 0.034700
vn 0.998930 -0.013281 0.044294
vn 0.998930 -0.013281 0.044294
vn 0.998930 -0.013281 0.044294
vn 0.022623 0.999625 -0.015414
vn 0.022623 0.999625 -0.015414
vn 0.022623 0.999625 -0.015414
vn 0.022623 0.999625 -0.015414
vn -0.011236 0.999937 0.000000
vn -0.011236 0.999937 0.000000
vn -0.011236 0.999937 0.000000
vn -0.011236 0.999937 0.000000
vn -0.355275 0.934230 -0.031514
vn -0.355275 0.934230 -0.031514
vn -0.355275 0.934230 -0.031514
vn -0.355275 0.934230 -0.031514
vn 0.219730 0.973922 -0.056514
vn 0.219731 0.973922 -0.056514
vn -0.000818 1.000000 -0.000268
vn -0.000818 1.000000 -0.000268
vn -0.000818 1.000000 -0.000268
vn -0.000818 1.000000 -0.000268
vn 0.000000 0.000000 -0.000000
vn 0.265734 0.955720 -0.126432
vn 0.265734 0.955720 -0.126432
vn 0.000000 0.000000 -0.000000
vn -0.294234 0.949126 -0.112186
vn -0.000000 0.000000 -0.000000
vn -0.000000 0.000000 -0.000000
vn -0.294234 0.949126 -0.112186
s off
g pCube1
usemtl lambert2SG
f 1/1/1 104/120/2 8/9/3 3/10/4 63/12/5 69/14/6
s 1
f 3/3/7 8/4/8 9/5/9 5/6/10
s off
f 37/23/11 41/24/12 42/25/13 38/27/14
s 1
f 9/5/9 8/4/8 28/7/15 29/8/16
s off
f 11/118/17 43/28/18 10/29/19 2/30/20 74/31/21 68/32/22 4/33/23
f 156/172/24 157/173/25 158/174/26 159/175/27
s 2
f 101/17/28 102/21/29 17/77/30 18/78/31
s off
f 153/170/32 106/15/33 107/16/34 108/18/35 109/19/36 110/20/37 111/22/38
s 2
f 15/41/39 14/42/40 31/114/41 32/115/42
s off
f 160/176/43 161/177/44 162/178/45 163/179/46 164/180/47
s 1
f 9/5/9 29/8/16 30/26/48 16/46/49
s off
f 165/181/50 166/182/51 167/183/52 168/184/53
s 2
f 18/78/31 17/77/30 19/79/54 20/81/55 85/82/56 86/83/57
f 20/81/55 19/79/54 98/84/58 99/85/59
s 4
f 112/53/60 113/54/61 151/55/62 123/60/63
s off
f 169/185/64 170/186/65 171/187/66 172/188/67
s 5
f 6/13/68 4/11/69 57/62/70 58/65/71
s 6
f 73/35/72 74/31/73 2/30/74 56/36/75
s 7
f 1/1/76 69/14/77 83/37/78 84/38/79
s 1
f 3/3/7 5/6/10 80/66/80 81/67/81
s 2
f 28/119/82 27/117/83 12/116/84 13/80/85
s off
f 116/68/86 117/69/87 118/70/88 119/71/89 120/72/90
f 121/73/91 122/74/92 123/60/93 124/75/94
f 10/29/95 47/43/96 31/44/97
f 173/189/98 174/190/99 175/191/100 176/192/101
f 177/193/102 178/194/103 179/195/104 180/196/105
f 7/2/106 27/40/107 33/45/108
f 27/40/109 28/39/110 35/47/111
f 28/39/112 8/122/113 105/121/114 35/47/115
f 34//116 62//117 33//118 36//119 45//120 41//121 37//122
f 33/45/123 27/40/124 36/48/125
f 27/40/126 35/47/127 38/27/128 42/25/129 46/50/130
f 32//131 31//132 47//133 44//134 39//135
f 189/205/136 32/34/137 39/52/138 40/56/139
f 49/57/140 48/58/141 50/59/142 51/61/143
f 39/52/144 44/51/145 43/28/146 40/56/147
f 46/50/148 45/49/149 36/48/150 27/40/151
f 52/63/152 53/64/153 54/92/154 55/93/155
f 42/25/156 41/24/157 48/58/158 49/57/159
f 41/24/160 45/49/161 50/59/162 48/58/163
f 46/50/164 42/25/165 49/57/166 51/61/167
f 43/28/168 44/51/169 53/64/170 52/63/171
f 44/51/172 47/43/173 54/92/174 53/64/175
f 10/29/176 43/28/177 52/63/178 55/93/179
s 6
f 72/94/180 73/35/72 56/36/75 59/95/181
s 5
f 58/65/71 57/62/70 60/76/182 61/123/183
s 6
f 71/96/184 72/94/180 59/95/181 21/97/185
s 5
f 61/123/183 60/76/182 23/124/186 22/125/187
s 7
f 81/98/188 82/99/189 63/12/190 3/10/191
s 6
f 60/100/192 66/101/193 65/102/194 23/103/195
f 57/104/196 67/105/197 66/101/193 60/100/192
f 4/33/198 68/32/199 67/105/197 57/104/196
s 7
f 82/99/189 83/37/78 69/14/77 63/12/190
s 6
f 65/102/194 66/101/193 72/94/180 71/96/184
f 66/101/193 67/105/197 73/35/72 72/94/180
f 67/105/197 68/32/199 74/31/73 73/35/72
s 1
f 76/126/200 75/127/201 26/128/202 25/129/203
s 7
f 64/106/204 77/107/205 76/108/206 25/109/207
f 70/110/208 78/111/209 77/107/205 64/106/204
f 79/112/210 78/111/209 70/110/208 24/113/211
s 1
f 81/67/81 80/66/80 75/127/201 76/126/200
s 7
f 76/108/206 77/107/205 82/99/189 81/98/188
f 77/107/205 78/111/209 83/37/78 82/99/189
f 84/38/79 83/37/78 78/111/209 79/112/210
s off
f 125/130/212 126/131/213 127/132/214 128/133/215 129/134/216 130/135/217 131/136/218
f 132/137/219 133/138/220 134/139/221 135/140/222 155/171/223 136/142/224 137/143/225 138/144/226 139/145/227 140/146/228 141/147/229 142/148/230 143/149/231 144/150/232
f 86/151/233 85/152/234 149/153/235 150/154/236
f 88/155/237 87/156/238 91/157/239
f 87/156/240 97/158/241 96/159/242 95/160/243 94/161/244 93/162/245 89/163/246 92/164/247 91/157/248
f 154//249 145//250 146//251
f 147/165/252 148/166/253 115/141/254 152/169/255
s 2
f 99/85/59 98/84/58 100/86/256 14/87/40 15/88/39
f 13/89/85 12/90/84 103/91/257 102/21/29 101/17/28
s off
f 92/164/258 89/163/259 90/167/260
f 47/43/261 10/29/262 55/93/263 54/92/264
f 45/49/265 46/50/266 51/61/267 50/59/268
f 181/197/269 182/198/270 183/199/271 184/200/272
s 4
f 123/60/63 151/55/62 114/168/273 124/75/274
s off
f 185/201/275 186/202/276 187/203/277 188/204/278
f 116/68/279 120/72/280 123/60/281 122/74/282
f 190/206/283 191/207/284 191/208/285 192/209/286
