# This file uses centimeters as units for non-parametric coordinates.

mtllib gebouw3_glass.mtl
g default
v -0.544400 0.000001 1.313848
v 2.229143 0.000001 1.210406
v 0.591729 13.900081 0.500586
v 1.035591 13.900081 0.484032
v 0.578412 13.506508 0.143514
v 1.022274 13.506508 0.126960
v -0.615139 0.000001 -0.582860
v 2.158403 0.000001 -0.686301
v 0.465585 12.367863 0.590882
v 0.445892 12.017988 0.062866
v 1.148418 12.017988 0.036665
v 1.168111 12.367863 0.564681
v 0.416728 11.463143 -0.719096
v 1.119254 11.463143 -0.745298
v 2.000000 0.000001 -2.000000
v -0.646662 0.000001 -1.428077
v -0.080114 5.739441 0.981503
v -0.127387 5.578607 -0.286022
v -0.157826 5.376931 -1.102161
v 1.663678 5.376931 -1.170098
v 1.694116 5.578607 -0.353957
v -0.189991 4.863557 -1.964601
v 1.631513 4.863557 -2.032535
v 2.094715 0.000001 -2.393958
v -0.678828 0.000001 -2.290518
v -0.491364 0.000001 2.735888
v -0.027078 5.900937 2.403541
v 2.282179 0.000001 2.632444
v 1.794426 5.900937 2.335606
v 1.221147 12.529354 1.986718
v 1.088628 14.061575 1.906070
v 0.644765 14.061575 1.922624
v 0.518621 12.529354 2.012920
v 0.259580 9.925234 -0.050520
v 0.288237 10.213673 0.717831
v 0.341273 10.375166 2.139867
v 1.407458 10.375166 2.100105
v 1.354422 10.246851 0.678067
v 1.325766 9.925234 -0.090285
v 1.296188 9.485165 -0.883354
v 0.230002 9.485165 -0.843590
v -0.458606 0.000001 3.614218
v 0.005680 5.999184 3.281875
v 2.314937 0.000001 3.510776
v 1.827184 5.999184 3.213940
v 1.440217 9.920778 2.978439
v 0.374031 9.920778 3.018203
v 1.056030 13.962317 1.032051
v 0.612168 13.962317 1.048606
v 0.484700 12.426068 1.103420
v 0.306565 10.269478 1.209249
v -0.063422 5.790270 1.429056
v -0.529704 -0.000001 1.707880
v 2.248628 0.000001 1.732858
v 0.477940 12.405483 0.922154
v 0.290298 10.219947 0.773084
v -0.099452 5.673650 0.462999
v -0.590600 0.000001 0.075099
v 2.187780 0.000001 0.101369
v 1.382943 10.300516 1.442775
v 1.765888 5.814037 1.570419
v 1.729959 5.700551 0.607074
v 2.203328 0.000001 0.518252
v 1.206860 11.293038 -0.016397
v 1.141799 11.211104 -0.762888
v 1.292310 10.289885 -0.059371
v 1.222470 10.309263 -0.825834
v 1.121713 11.509916 -0.679375
v 1.150317 11.216668 -0.619764
v 1.232401 10.335617 -0.659302
v 1.298988 9.526825 -0.808277
v 1.200152 11.305918 -0.079110
v 1.189850 11.310459 -0.185730
v 1.176462 11.318710 -0.324289
v 1.160599 11.311609 -0.528536
v 1.075191 14.020662 1.545813
v 1.205967 12.486627 1.579696
v 1.045661 13.930742 0.754017
v 1.174308 12.430374 0.730841
v 1.113413 13.774994 1.921154
v 1.099543 13.737503 1.557750
v 1.067549 13.654154 0.718846
v 1.025401 13.598919 0.210802
v 1.380488 10.409315 1.376972
v 1.376789 10.462735 1.277792
v 1.372130 10.458941 1.152865
v 1.367720 10.456699 1.034617
v 1.362679 10.444661 0.899453
v 1.359664 10.414509 0.818621
v 1.356712 10.354258 0.739469
v 1.095974 13.787560 1.464265
v 1.090965 13.806132 1.333037
v 1.084568 13.791546 1.165436
v 1.078881 13.775040 1.016424
v 1.073865 13.744204 0.885034
v 1.070814 13.724606 0.805103
v 1.175690 12.383974 0.767920
v 1.178257 12.333500 0.836742
v 1.182490 12.321318 0.950218
v 1.186627 12.319451 1.061144
v 1.190974 12.329265 1.177708
v 1.195127 12.349922 1.289061
v 1.199919 12.375431 1.417547
v 1.204980 12.432129 1.553237
v 1.080800 13.469431 0.658569
v 1.097969 13.260266 0.648614
v 1.122057 12.970301 0.642336
v 1.149306 12.653643 0.660775
v 1.166419 12.470131 0.706889
v 1.113362 13.644202 1.596825
v 1.127559 13.431820 1.616973
v 1.144208 13.238100 1.624880
v 1.158445 13.068834 1.623433
v 1.174530 12.878207 1.623204
v 1.189227 12.700542 1.615097
v 1.202106 12.538088 1.592679
v 1.074805 13.586366 0.683769
v 1.069331 13.699069 0.765918
v 1.106324 13.693418 1.582975
v 1.097685 13.775133 1.509084
v 1.216783 11.215431 0.009416
v 1.227623 11.060116 0.005838
v 1.277988 10.492291 -0.030068
v 1.288972 10.366785 -0.041980
v 1.287304 10.271728 -0.114060
v 1.279043 10.264607 -0.195558
v 1.269274 10.258517 -0.292686
v 1.259206 10.250113 -0.392788
v 1.249768 10.250046 -0.486630
v 1.239231 10.265345 -0.591388
v 1.160100 11.103411 -0.637471
v 1.212444 10.574927 -0.671168
v 1.224506 10.447210 -0.670645
v 1.154323 11.284100 -0.591216
v 1.235458 10.304812 -0.640094
v 1.151740 11.248880 -0.611947
v 1.158128 11.306610 -0.551925
v 1.222626 11.116634 0.009838
v 1.203398 11.303264 -0.048755
v 1.212021 11.257279 -0.000183
v 1.290529 10.319965 -0.047136
v 1.289803 10.273408 -0.086758
v 1.050929 12.420525 0.737597
v 1.051494 12.379538 0.768523
v 0.975863 13.728630 1.563468
v 0.983246 13.679546 1.593250
v 0.944320 13.641960 0.728130
v 0.951477 13.573938 0.691762
v 0.973620 13.768265 1.510745
v 0.972090 13.777994 1.467027
v 0.967227 13.795464 1.337533
v 0.960930 13.780292 1.171268
v 0.955292 13.763731 1.023096
v 0.950320 13.732871 0.892469
v 0.947335 13.714085 0.814350
v 0.945911 13.690235 0.777550
v 1.054290 12.325279 0.838642
v 1.058732 12.310580 0.954175
v 1.062931 12.308439 1.066133
v 1.067335 12.318178 1.183813
v 1.071517 12.338861 1.295795
v 1.076345 12.364769 1.425398
v 1.081334 12.425421 1.563231
v 1.082379 12.479292 1.589731
v 0.957241 13.459932 0.667985
v 0.974467 13.249750 0.657765
v 0.998533 12.960020 0.651454
v 1.025722 12.643927 0.669689
v 1.043350 12.457112 0.717570
v 0.989992 13.633125 1.606333
v 1.003920 13.422977 1.625933
v 1.020691 13.227745 1.634006
v 1.034936 13.058383 1.632573
v 1.051029 12.867672 1.632348
v 1.065752 12.689701 1.624232
v 1.078665 12.526800 1.601730
v 1.124338 11.284496 -0.010337
v 1.129476 11.248510 0.005224
v 1.120918 11.295267 -0.041522
v 1.209831 10.283392 -0.051281
v 1.207499 10.266314 -0.077155
v 1.067815 11.213130 -0.610999
v 1.077693 11.094936 -0.629895
v 1.117743 11.297728 -0.071254
v 1.107409 11.302294 -0.178182
v 1.093983 11.310530 -0.317203
v 1.078246 11.303709 -0.520036
v 1.075939 11.299806 -0.541070
v 1.134020 11.208870 0.014374
v 1.139828 11.110366 0.014681
v 1.195296 10.484622 -0.025237
v 1.206152 10.361267 -0.036916
v 1.207681 10.314825 -0.041974
v 1.204955 10.263634 -0.105515
v 1.196729 10.256534 -0.186641
v 1.186956 10.250440 -0.283815
v 1.176866 10.241999 -0.384165
v 1.167340 10.241911 -0.478928
v 1.156477 10.259115 -0.586382
v 1.152513 10.300234 -0.635895
v 1.130011 10.566725 -0.663582
v 1.141914 10.440774 -0.663197
v 1.149613 10.330665 -0.652904
v 1.072069 11.280608 -0.579562
v 1.069287 11.249012 -0.601020
v 1.144930 11.052469 0.010675
v 1.994329 0.000001 1.198748
v 2.010062 -0.000001 1.735615
v 1.103441 10.286803 1.451227
v 1.100593 10.398971 1.379613
v 1.486969 5.790681 1.582901
v 1.963698 0.000001 0.516060
v 1.075632 10.230870 0.699131
v 1.451154 5.677114 0.621616
v 1.097531 10.441954 1.284089
v 1.093278 10.434101 1.163877
v 1.088907 10.431774 1.046366
v 1.084040 10.420317 0.915370
v 1.081166 10.393417 0.840473
v 1.078037 10.340648 0.764512
vt 0.057491 0.903381
vt 0.057495 0.950216
vt 0.020319 0.950227
vt 0.008911 0.950231
vt 0.008907 0.903396
vt 0.114547 0.950216
vt 0.114376 0.903459
vt 0.205536 0.903381
vt 0.205539 0.950216
vt 0.168034 0.950216
vt 0.085602 0.950216
vt 0.546126 0.335785
vt 0.424151 0.336025
vt 0.391634 0.009820
vt 0.577360 0.009455
vt 0.501256 0.975204
vt 0.471534 0.975263
vt 0.462677 0.875508
vt 0.509721 0.875416
vt 0.462561 0.816729
vt 0.620963 0.348826
vt 0.559623 0.349805
vt 0.568132 0.225589
vt 0.573126 0.153728
vt 0.757359 0.011590
vt 0.839461 0.012445
vt 0.865556 0.011889
vt 0.933748 0.010526
vt 0.919112 0.399529
vt 0.854752 0.393905
vt 0.825164 0.391302
vt 0.790846 0.387815
vt 0.741473 0.382790
vt 0.713502 0.011117
vt 0.991968 0.012003
vt 0.977057 0.404453
vt 0.910983 0.696139
vt 0.849351 0.690881
vt 0.820468 0.688416
vt 0.816809 0.688104
vt 0.765546 0.670483
vt 0.687618 0.370874
vt 0.657075 0.012283
vt 0.968174 0.664557
vt 0.906937 0.838998
vt 0.846697 0.833869
vt 0.834685 0.832849
vt 0.812733 0.830986
vt 0.777187 0.808886
vt 0.712357 0.642906
vt 0.630486 0.338520
vt 0.599940 0.017608
vt 0.904061 0.940652
vt 0.846156 0.935625
vt 0.809865 0.932643
vt 0.785478 0.907329
vt 0.724465 0.773745
vt 0.291321 0.350258
vt 0.240902 0.360529
vt 0.267839 0.018336
vt 0.348680 0.019856
vt 0.259010 0.652538
vt 0.253078 0.707741
vt 0.251429 0.723272
vt 0.247270 0.725978
vt 0.202062 0.755091
vt 0.207009 0.710703
vt 0.208980 0.711402
vt 0.210839 0.711653
vt 0.217377 0.712248
vt 0.225869 0.713153
vt 0.238414 0.713297
vt 0.239863 0.713058
vt 0.242333 0.711793
vt 0.243710 0.709698
vt 0.244294 0.707749
vt 0.245629 0.700925
vt 0.248896 0.668416
vt 0.249158 0.660572
vt 0.248732 0.653702
vt 0.247629 0.651763
vt 0.244741 0.649222
vt 0.238344 0.647989
vt 0.232576 0.647727
vt 0.226398 0.647958
vt 0.220410 0.648053
vt 0.215379 0.648253
vt 0.213697 0.648280
vt 0.211967 0.649209
vt 0.214698 0.626859
vt 0.259706 0.604381
vt 0.264412 0.602031
vt 0.373461 0.020849
vt 0.344958 0.318699
vt 0.181810 0.365571
vt 0.194081 0.017486
vt 0.219651 0.017770
vt 0.156266 0.853664
vt 0.158554 0.849570
vt 0.160446 0.842484
vt 0.161553 0.829667
vt 0.162626 0.811879
vt 0.162244 0.792390
vt 0.159852 0.781007
vt 0.158467 0.778479
vt 0.168803 0.775088
vt 0.193089 0.846292
vt 0.187703 0.851715
vt 0.170149 0.869387
vt 0.153642 0.870605
vt 0.136433 0.871815
vt 0.104802 0.874073
vt 0.082638 0.875652
vt 0.082384 0.858014
vt 0.081284 0.781356
vt 0.106312 0.779775
vt 0.105398 0.782902
vt 0.103645 0.792821
vt 0.102732 0.803711
vt 0.102272 0.815416
vt 0.101787 0.825806
vt 0.101818 0.837722
vt 0.102546 0.850793
vt 0.103286 0.853865
vt 0.104733 0.856649
vt 0.107618 0.859069
vt 0.110330 0.859941
vt 0.118314 0.861402
vt 0.128610 0.860929
vt 0.137770 0.860290
vt 0.145880 0.858737
vt 0.150814 0.857740
vt 0.153279 0.856286
vt 0.166820 0.644525
vt 0.064293 0.010020
vt 0.075235 0.373411
vt 0.021421 0.377258
vt 0.010288 0.010830
vt 0.079333 0.648777
vt 0.026642 0.618876
vt 0.122209 0.369993
vt 0.119762 0.645877
vt 0.119530 0.011672
vt 0.211146 0.651027
vt 0.210711 0.653884
vt 0.209690 0.661589
vt 0.206182 0.696412
vt 0.205814 0.699804
vt 0.205600 0.705859
vt 0.206093 0.708458
vt 0.156303 0.775555
vt 0.152210 0.772303
vt 0.145292 0.771272
vt 0.138505 0.770878
vt 0.131343 0.771183
vt 0.124472 0.772164
vt 0.116541 0.773399
vt 0.108092 0.776520
vt 0.123564 0.652675
vt 0.129510 0.656178
vt 0.137167 0.656260
vt 0.144412 0.656420
vt 0.152718 0.656025
vt 0.574294 0.137239
vt 0.599829 0.136864
vt 0.608543 0.224963
vt 0.647262 0.631269
vt 0.680220 0.976200
vt 0.520655 0.978774
vt 0.542471 0.632958
vt 0.462551 0.811318
vt 0.509595 0.811225
vt 0.460966 0.794418
vt 0.455296 0.733947
vt 0.450114 0.678689
vt 0.521510 0.678549
vt 0.546258 0.402982
vt 0.424283 0.403222
vt 0.162753 0.650919
vt 0.157745 0.654391
vt 0.560540 0.406698
vt 0.621881 0.405702
vt 0.432061 0.827462
vt 0.441320 0.836900
vt 0.430621 0.840985
vt 0.427642 0.837659
vt 0.355257 0.965405
vt 0.352049 0.960735
vt 0.361074 0.955932
vt 0.363916 0.960071
vt 0.450476 0.946031
vt 0.446967 0.953303
vt 0.437433 0.948889
vt 0.440304 0.942778
vt 0.359561 0.970257
vt 0.368659 0.963489
vt 0.384872 0.976209
vt 0.362802 0.973384
vt 0.372530 0.964559
vt 0.384122 0.965306
vt 0.400378 0.974292
vt 0.398807 0.963338
vt 0.414104 0.971889
vt 0.411878 0.961190
vt 0.426035 0.968697
vt 0.423373 0.957958
vt 0.433150 0.966776
vt 0.430263 0.955928
vt 0.443408 0.958871
vt 0.433356 0.953460
vt 0.424007 0.823647
vt 0.421213 0.833495
vt 0.412332 0.821706
vt 0.411049 0.832449
vt 0.400962 0.821813
vt 0.401216 0.832538
vt 0.389188 0.822937
vt 0.390914 0.833818
vt 0.378065 0.825378
vt 0.381149 0.836089
vt 0.365493 0.829312
vt 0.369907 0.839176
vt 0.352493 0.836329
vt 0.358102 0.845225
vt 0.348081 0.840383
vt 0.355900 0.849945
vt 0.452892 0.914008
vt 0.452677 0.933971
vt 0.441894 0.932695
vt 0.441796 0.914052
vt 0.451981 0.887330
vt 0.440923 0.888278
vt 0.448427 0.858036
vt 0.437715 0.860375
vt 0.442817 0.840887
vt 0.432595 0.844193
vt 0.349555 0.955650
vt 0.346104 0.935148
vt 0.356991 0.933501
vt 0.359682 0.951959
vt 0.344392 0.917124
vt 0.355377 0.916245
vt 0.343623 0.901752
vt 0.354729 0.901235
vt 0.342805 0.884495
vt 0.353882 0.884372
vt 0.342823 0.868116
vt 0.353798 0.868646
vt 0.344186 0.853094
vt 0.355056 0.854206
vt 0.318797 0.344434
vt 0.350949 0.331784
vt 0.352767 0.341958
vt 0.329271 0.344119
vt 0.385628 0.809943
vt 0.371861 0.795389
vt 0.384112 0.794309
vt 0.387771 0.798686
vt 0.347563 0.599187
vt 0.359782 0.597737
vt 0.381194 0.328892
vt 0.382671 0.339302
vt 0.413674 0.588020
vt 0.424230 0.800192
vt 0.416682 0.788913
vt 0.401408 0.588988
vt 0.391407 0.811283
vt 0.392088 0.800042
vt 0.398196 0.811463
vt 0.397244 0.799308
vt 0.404472 0.810562
vt 0.402313 0.798763
vt 0.411512 0.808615
vt 0.407926 0.797743
vt 0.415720 0.806735
vt 0.411066 0.796333
vt 0.420038 0.803958
vt 0.414182 0.793859
vt 0.241942 0.977232
vt 0.226734 0.844473
vt 0.313632 0.971902
vt 0.301282 0.826768
vt 0.344824 0.848361
vt 0.440872 0.962477
vt 0.372802 0.975937
vt 0.436890 0.830472
vt 0.237647 0.938992
vt 0.227540 0.939432
vt 0.313869 0.956557
vt 0.311566 0.960485
vt 0.319987 0.964762
vt 0.322828 0.959285
vt 0.310258 0.845274
vt 0.318837 0.841437
vt 0.312839 0.858269
vt 0.322840 0.856350
vt 0.314254 0.873538
vt 0.324368 0.872950
vt 0.308015 0.841833
vt 0.316105 0.836938
vt 0.301677 0.837078
vt 0.310777 0.831002
vt 0.288468 0.836282
vt 0.288108 0.826367
vt 0.276981 0.837135
vt 0.276028 0.827134
vt 0.232337 0.969821
vt 0.230645 0.965076
vt 0.240405 0.962523
vt 0.242661 0.966766
vt 0.246198 0.977606
vt 0.246554 0.967664
vt 0.233584 0.835111
vt 0.237494 0.833819
vt 0.239987 0.843153
vt 0.236977 0.845302
vt 0.325948 0.938336
vt 0.324256 0.954413
vt 0.314800 0.952239
vt 0.315887 0.937956
vt 0.263404 0.977500
vt 0.250063 0.977730
vt 0.250185 0.967695
vt 0.263231 0.967335
vt 0.280800 0.976931
vt 0.280179 0.966922
vt 0.305821 0.974359
vt 0.304754 0.964252
vt 0.315769 0.969653
vt 0.307210 0.963372
vt 0.229099 0.959590
vt 0.227855 0.946792
vt 0.237796 0.946027
vt 0.238895 0.957847
vt 0.225815 0.869988
vt 0.225905 0.854343
vt 0.236019 0.854813
vt 0.235921 0.869853
vt 0.226382 0.848438
vt 0.236205 0.849206
vt 0.240901 0.832821
vt 0.251178 0.830797
vt 0.253135 0.840734
vt 0.243386 0.842502
vt 0.263346 0.828897
vt 0.264870 0.838992
vt 0.428920 0.787665
vt 0.393053 0.337575
vt 0.380360 0.807518
vt 0.328098 0.333714
vn 0.037211 0.055735 0.997752
vn 0.037211 0.055735 0.997752
vn 0.037211 0.055735 0.997752
vn 0.037211 0.055735 0.997752
vn 0.037211 0.055735 0.997752
vn 0.037211 0.055735 0.997752
vn 0.037211 0.055735 0.997752
vn -0.027593 0.672185 -0.739869
vn -0.027593 0.672185 -0.739869
vn -0.027593 0.672185 -0.739869
vn -0.027593 0.672185 -0.739869
vn -0.027593 0.672185 -0.739869
vn -0.037177 0.070535 -0.996816
vn -0.037177 0.070535 -0.996816
vn -0.037177 0.070535 -0.996816
vn -0.037177 0.070535 -0.996816
vn -0.996042 0.082649 0.032714
vn -0.996042 0.082649 0.032714
vn -0.996042 0.082649 0.032714
vn -0.996124 0.081657 0.032712
vn -0.995936 0.083644 0.033382
vn -0.996094 0.083307 0.029266
vn -0.996094 0.083307 0.029266
vn -0.996094 0.083307 0.029266
vn -0.996076 0.084409 0.026603
vn -0.995986 0.084009 0.030896
vn -0.996330 0.084106 0.015865
vn -0.996330 0.084106 0.015865
vn -0.996322 0.084120 0.016311
vn -0.996377 0.084022 0.013133
vn -0.996377 0.084022 0.013133
vn -0.996377 0.084022 0.013133
vn -0.996377 0.084022 0.013133
vn -0.996298 0.085162 0.011780
vn -0.996331 0.084106 0.015865
vn -0.037208 0.057366 -0.997660
vn -0.037208 0.057366 -0.997660
vn -0.037208 0.057366 -0.997660
vn -0.037208 0.057366 -0.997660
vn -0.021556 0.815744 -0.578012
vn -0.021556 0.815744 -0.578012
vn -0.021556 0.815744 -0.578012
vn -0.021556 0.815744 -0.578012
vn -0.021556 0.815744 -0.578012
vn 0.993327 0.083579 -0.079475
vn 0.994282 0.085640 -0.063792
vn 0.993750 0.083351 -0.074255
vn 0.996610 0.078437 -0.024804
vn -0.995803 0.090057 0.016309
vn -0.995661 0.091720 0.015707
vn -0.996198 0.084294 0.022007
vn -0.995997 0.085196 0.027039
vn -0.996178 0.085845 0.016123
vn -0.996198 0.084294 0.022007
vn -0.996198 0.084294 0.022007
vn -0.995802 0.091464 -0.003592
vn -0.995488 0.092469 -0.021283
vn -0.037188 0.066268 -0.997109
vn -0.037188 0.066268 -0.997109
vn -0.037188 0.066268 -0.997109
vn -0.037188 0.066268 -0.997109
vn -0.037189 0.066269 -0.997109
vn -0.037189 0.066269 -0.997109
vn 0.990961 0.098205 -0.091386
vn 0.990961 0.098205 -0.091386
vn 0.990961 0.098205 -0.091386
vn 0.990961 0.098205 -0.091386
vn 0.994017 0.088944 -0.063402
vn 0.993739 0.090392 -0.065670
vn 0.990961 0.098205 -0.091386
vn 0.990961 0.098205 -0.091386
vn 0.990961 0.098205 -0.091386
vn 0.990961 0.098205 -0.091386
vn 0.990961 0.098205 -0.091386
vn 0.990961 0.098205 -0.091386
vn 0.990961 0.098205 -0.091386
vn 0.990961 0.098205 -0.091386
vn 0.990961 0.098205 -0.091386
vn 0.990961 0.098205 -0.091386
vn 0.990961 0.098205 -0.091386
vn 0.990961 0.098205 -0.091386
vn 0.990961 0.098205 -0.091386
vn 0.990961 0.098205 -0.091386
vn 0.990961 0.098205 -0.091386
vn 0.990961 0.098205 -0.091386
vn 0.990961 0.098205 -0.091386
vn 0.990961 0.098205 -0.091386
vn 0.990961 0.098205 -0.091386
vn 0.990961 0.098205 -0.091386
vn 0.990961 0.098205 -0.091386
vn 0.994153 0.089008 -0.061130
vn 0.993902 0.088733 -0.065458
vn 0.992693 0.092704 -0.077243
vn 0.992871 0.092091 -0.075669
vn -0.019054 0.859441 -0.510879
vn -0.019054 0.859441 -0.510879
vn -0.019054 0.859441 -0.510879
vn -0.019054 0.859441 -0.510879
vn 0.996958 0.075660 0.018718
vn 0.996958 0.075660 0.018718
vn -0.995487 0.094467 0.009011
vn -0.995487 0.094467 0.009011
vn 0.995194 0.084783 -0.048993
vn 0.995558 0.084326 -0.041878
vn 0.995558 0.084326 -0.041878
vn 0.993413 0.087891 -0.073519
vn 0.993413 0.087891 -0.073519
vn 0.993413 0.087891 -0.073519
vn 0.993413 0.087891 -0.073519
vn 0.993413 0.087891 -0.073519
vn 0.993413 0.087891 -0.073519
vn 0.993413 0.087891 -0.073519
vn 0.994356 0.088164 -0.059025
vn 0.994146 0.088099 -0.062547
vn 0.993413 0.087891 -0.073519
vn 0.993413 0.087891 -0.073519
vn 0.993413 0.087891 -0.073519
vn 0.993413 0.087891 -0.073519
vn 0.993413 0.087891 -0.073519
vn 0.993413 0.087891 -0.073519
vn 0.993413 0.087891 -0.073519
vn 0.993413 0.087891 -0.073519
vn 0.994219 0.088122 -0.061346
vn 0.994335 0.088158 -0.059378
vn 0.993413 0.087891 -0.073519
vn 0.993413 0.087891 -0.073519
vn 0.993413 0.087891 -0.073519
vn 0.993413 0.087891 -0.073519
vn 0.993413 0.087891 -0.073519
vn 0.993413 0.087891 -0.073519
vn 0.993413 0.087891 -0.073519
vn 0.993413 0.087891 -0.073519
vn 0.993413 0.087891 -0.073519
vn 0.993413 0.087891 -0.073519
vn 0.993413 0.087891 -0.073519
vn 0.993413 0.087891 -0.073519
vn 0.993413 0.087891 -0.073519
vn 0.993413 0.087891 -0.073519
vn 0.993413 0.087891 -0.073519
vn 0.993413 0.087891 -0.073519
vn 0.993413 0.087891 -0.073519
vn -0.004203 0.993622 -0.112684
vn -0.004203 0.993622 -0.112684
vn -0.004203 0.993622 -0.112684
vn -0.004203 0.993622 -0.112684
vn -0.004203 0.993622 -0.112684
vn 0.037212 0.055654 0.997756
vn 0.037212 0.055654 0.997756
vn 0.037212 0.055654 0.997756
vn 0.037212 0.055654 0.997756
vn 0.037212 0.055654 0.997756
vn 0.037212 0.055654 0.997756
vn 0.994454 0.087339 -0.058585
vn -0.037189 0.066269 -0.997109
vn -0.037189 0.066269 -0.997109
vn -0.996293 0.079568 0.032708
vn -0.995764 0.082964 0.039624
vn 0.995926 0.080057 -0.041509
vn 0.995843 0.083548 -0.036281
vn 0.995950 0.082964 -0.034659
vn 0.995961 0.079568 -0.041595
vn 0.995270 0.087082 -0.043059
vn 0.995699 0.090733 -0.018741
vn 0.017115 0.888316 0.458913
vn 0.017115 0.888316 0.458913
vn 0.017115 0.888316 0.458913
vn 0.017115 0.888316 0.458913
vn -0.994329 0.090733 0.055479
vn -0.004203 0.993622 -0.112684
vn -0.004203 0.993622 -0.112684
vn -0.004203 0.993622 -0.112684
vn -0.004203 0.993622 -0.112684
vn -0.004203 0.993622 -0.112684
vn 0.995660 0.082137 -0.043763
vn 0.994674 0.086979 -0.055296
vn 0.995865 0.080878 -0.041364
vn 0.994391 0.088175 -0.058403
vn 0.994391 0.088175 -0.058403
vn 0.994391 0.088175 -0.058403
vn 0.994391 0.088175 -0.058403
vn 0.994391 0.088175 -0.058403
vn 0.994391 0.088175 -0.058403
vn 0.994391 0.088175 -0.058403
vn 0.994391 0.088175 -0.058403
vn 0.994391 0.088175 -0.058403
vn 0.994391 0.088175 -0.058403
vn 0.994391 0.088175 -0.058403
vn 0.994391 0.088175 -0.058403
vn 0.994391 0.088175 -0.058403
vn 0.994391 0.088175 -0.058403
vn 0.994391 0.088175 -0.058403
vn 0.994391 0.088175 -0.058403
vn 0.994391 0.088175 -0.058403
vn 0.994391 0.088175 -0.058403
vn 0.994391 0.088175 -0.058403
vn 0.994391 0.088175 -0.058403
vn 0.994391 0.088175 -0.058403
vn 0.994391 0.088175 -0.058403
vn -0.026338 0.734697 0.677884
vn -0.000658 0.567490 0.823380
vn 0.000530 0.562498 0.826798
vn -0.025747 0.730014 0.682947
vn 0.012874 -0.670129 -0.742133
vn -0.030069 -0.391121 -0.919848
vn -0.026406 -0.412229 -0.910697
vn 0.014415 -0.680654 -0.732463
vn 0.094482 -0.289944 0.952368
vn 0.113961 -0.573382 0.811324
vn 0.115003 -0.595500 0.795081
vn 0.096917 -0.318990 0.942790
vn 0.044421 -0.882350 -0.468493
vn 0.045038 -0.886438 -0.460650
vn 0.085450 -0.996245 -0.013937
vn 0.072253 -0.983278 -0.167164
vn 0.072427 -0.983452 -0.166062
vn 0.085466 -0.996247 -0.013685
vn 0.093491 -0.991058 0.095199
vn 0.093455 -0.991080 0.095013
vn 0.098718 -0.981595 0.163479
vn 0.098630 -0.981894 0.161728
vn 0.101451 -0.968604 0.226966
vn 0.101459 -0.968634 0.226835
vn 0.106278 -0.930481 0.350587
vn 0.105916 -0.934164 0.340762
vn 0.116701 -0.764625 0.633822
vn 0.116304 -0.770705 0.626487
vn -0.034595 0.797422 0.602429
vn -0.034595 0.797422 0.602429
vn -0.079890 0.994290 0.070747
vn -0.072970 0.990209 0.118999
vn -0.072970 0.990209 0.118999
vn -0.079821 0.994261 0.071236
vn -0.089691 0.995507 -0.030358
vn -0.089706 0.995497 -0.030633
vn -0.094647 0.987338 -0.127301
vn -0.094699 0.987193 -0.128383
vn -0.097036 0.977992 -0.184705
vn -0.097039 0.977952 -0.184912
vn -0.095237 0.950533 -0.295663
vn -0.095124 0.949050 -0.300425
vn -0.092508 0.916279 -0.389713
vn -0.092508 0.916279 -0.389713
vn -0.095908 0.358336 -0.928654
vn -0.097287 0.438452 -0.893474
vn -0.097287 0.438452 -0.893474
vn -0.095462 0.338452 -0.936129
vn 0.076020 -0.023426 0.996831
vn 0.080854 -0.087303 0.992895
vn 0.082368 -0.114976 0.989947
vn 0.076770 -0.029570 0.996610
vn 0.070311 0.034780 0.996919
vn 0.072007 0.017002 0.997259
vn 0.061527 0.149027 0.986917
vn 0.063460 0.122268 0.990466
vn 0.045691 0.305752 0.951014
vn 0.047564 0.293010 0.954925
vn -0.063841 -0.125466 -0.990042
vn -0.068026 -0.069086 -0.995289
vn -0.067505 -0.078160 -0.994653
vn -0.062438 -0.140618 -0.988093
vn -0.072002 -0.018325 -0.997236
vn -0.070926 -0.029676 -0.997040
vn -0.073584 -0.002451 -0.997286
vn -0.073713 -0.000698 -0.997279
vn -0.075664 0.021635 -0.996899
vn -0.074765 0.011001 -0.997140
vn -0.081519 0.092961 -0.992327
vn -0.079907 0.072905 -0.994133
vn -0.087038 0.163054 -0.982771
vn -0.085941 0.149090 -0.985082
vn 0.996142 0.075338 -0.045004
vn 0.996142 0.075338 -0.045004
vn 0.996142 0.075338 -0.045004
vn 0.996142 0.075338 -0.045004
vn 0.996142 0.075338 -0.045004
vn 0.996142 0.075338 -0.045003
vn 0.996142 0.075338 -0.045004
vn 0.996142 0.075338 -0.045004
vn 0.996142 0.075338 -0.045004
vn 0.996142 0.075338 -0.045004
vn 0.996142 0.075338 -0.045003
vn 0.996142 0.075338 -0.045004
vn 0.996142 0.075338 -0.045004
vn 0.996142 0.075338 -0.045004
vn 0.996142 0.075338 -0.045003
vn 0.996142 0.075338 -0.045003
vn 0.996142 0.075338 -0.045004
vn 0.996142 0.075338 -0.045004
vn 0.996142 0.075338 -0.045003
vn 0.996142 0.075338 -0.045004
vn 0.996142 0.075338 -0.045004
vn 0.996142 0.075338 -0.045004
vn 0.996142 0.075338 -0.045004
vn 0.996142 0.075338 -0.045004
vn 0.996142 0.075338 -0.045003
vn 0.996142 0.075338 -0.045003
vn 0.996142 0.075338 -0.045004
vn 0.996142 0.075338 -0.045003
vn 0.996142 0.075338 -0.045004
vn 0.996142 0.075338 -0.045003
vn 0.996142 0.075338 -0.045004
vn 0.996142 0.075338 -0.045004
vn 0.996142 0.075338 -0.045004
vn 0.996142 0.075338 -0.045004
vn -0.020716 -0.407347 -0.913038
vn -0.031725 -0.306861 -0.951225
vn -0.029583 -0.326961 -0.944575
vn -0.020716 -0.407347 -0.913038
vn 0.079044 -0.974028 -0.212182
vn 0.068962 -0.944998 -0.319723
vn 0.068962 -0.944998 -0.319723
vn 0.078713 -0.973230 -0.215934
vn -0.125534 0.844496 -0.520642
vn -0.115807 0.945045 -0.305741
vn -0.117104 0.937198 -0.328551
vn -0.125534 0.844496 -0.520642
vn 0.098239 -0.064790 0.993052
vn 0.110502 -0.167925 0.979587
vn 0.111535 -0.177349 0.977807
vn 0.099998 -0.078962 0.991850
vn 0.093028 -0.993795 -0.060976
vn 0.092777 -0.993850 -0.060447
vn 0.092688 -0.993813 -0.061202
vn 0.093062 -0.993816 -0.060578
vn 0.096825 -0.995241 -0.010933
vn 0.096666 -0.995231 -0.013068
vn 0.100655 -0.993980 0.043268
vn 0.100516 -0.994084 0.041164
vn 0.116289 -0.918870 0.377034
vn 0.115893 -0.924640 0.362780
vn -0.054334 -0.060051 -0.996716
vn -0.060962 0.026105 -0.997799
vn -0.059966 0.012307 -0.998125
vn -0.051928 -0.089393 -0.994642
vn -0.064335 0.065564 -0.995772
vn -0.067031 0.094677 -0.993249
vn -0.066813 0.092247 -0.993492
vn -0.063912 0.061068 -0.996085
vn -0.082397 0.207116 -0.974841
vn -0.079279 0.184843 -0.979565
vn -0.103904 0.991810 -0.074269
vn -0.104091 0.992604 -0.062467
vn -0.104180 0.992537 -0.063373
vn -0.103734 0.991843 -0.074072
vn -0.104214 0.992563 -0.062909
vn -0.104131 0.992621 -0.062126
vn -0.101328 0.994344 -0.031820
vn -0.101606 0.994221 -0.034665
vn -0.084542 0.992303 0.090482
vn -0.085128 0.992581 0.086815
vn -0.073460 0.984668 0.158219
vn -0.073460 0.984668 0.158219
vn -0.015110 0.772412 0.634942
vn -0.000895 0.690438 0.723391
vn -0.000045 0.685220 0.728336
vn -0.015110 0.772412 0.634942
vn 0.094770 -0.034280 0.994909
vn 0.096013 -0.045835 0.994324
vn 0.081916 0.063771 0.994597
vn 0.084620 0.045906 0.995355
vn 0.063436 0.217712 0.973949
vn 0.066179 0.193421 0.978881
vn 0.124105 -0.404419 0.906114
vn 0.125851 -0.731168 0.670488
vn 0.125332 -0.752628 0.646408
vn 0.124305 -0.415285 0.901158
vn -0.063567 0.057754 -0.996305
vn -0.063574 0.058325 -0.996271
vn -0.098191 0.323316 -0.941183
vn -0.098191 0.323316 -0.941183
vn 0.991979 0.084289 -0.094196
vn 0.991979 0.084289 -0.094196
vn 0.991979 0.084289 -0.094196
vn 0.991979 0.084289 -0.094196
vn 0.991979 0.084289 -0.094196
vn 0.991979 0.084289 -0.094196
vn 0.991979 0.084289 -0.094196
vn 0.991979 0.084289 -0.094196
vn 0.991979 0.084289 -0.094196
vn 0.991979 0.084289 -0.094196
vn 0.991979 0.084289 -0.094196
vn 0.991979 0.084289 -0.094196
vn 0.991979 0.084289 -0.094196
vn 0.991979 0.084289 -0.094196
vn 0.991979 0.084289 -0.094196
vn 0.991979 0.084289 -0.094196
vn 0.991979 0.084289 -0.094196
vn 0.991979 0.084289 -0.094196
vn 0.991979 0.084289 -0.094196
vn 0.991979 0.084289 -0.094196
vn 0.991979 0.084289 -0.094196
vn 0.991979 0.084289 -0.094196
vn 0.991979 0.084289 -0.094196
vn 0.991979 0.084289 -0.094196
vn 0.991979 0.084289 -0.094196
vn 0.991979 0.084289 -0.094196
vn 0.991979 0.084289 -0.094196
vn 0.991979 0.084289 -0.094196
vn 0.991979 0.084289 -0.094196
vn 0.991979 0.084289 -0.094196
vn -0.000004 1.000000 0.000001
vn -0.000002 1.000000 0.000001
vn -0.000001 1.000000 0.000001
vn -0.000004 1.000000 0.000001
vn 0.005866 -0.527989 -0.849231
vn 0.005866 -0.527989 -0.849231
vn 0.005866 -0.527989 -0.849231
vn 0.005866 -0.527989 -0.849231
vn -0.035332 -0.031851 -0.998868
vn -0.030570 -0.030351 -0.999072
vn -0.032282 -0.030890 -0.999001
vn -0.035332 -0.031851 -0.998868
vn -0.028088 -0.029569 -0.999168
vn -0.028088 -0.029569 -0.999168
vn 0.000000 1.000000 0.000000
vn 0.000000 1.000000 0.000000
vn 0.038350 -0.013575 0.999172
vn 0.065370 -0.021339 0.997633
vn 0.066006 -0.028953 0.997399
vn 0.048140 -0.012598 0.998761
vn 0.024490 -0.014955 0.999588
vn 0.024490 -0.014955 0.999588
vn 0.065774 -0.978671 -0.194621
vn 0.042703 -0.894761 -0.444498
vn 0.042703 -0.894761 -0.444498
vn 0.066287 -0.979881 -0.188251
vn 0.086086 -0.995824 0.030385
vn 0.086071 -0.995824 0.030447
vn 0.090827 -0.994488 0.052374
vn 0.090817 -0.994505 0.052072
vn 0.095550 -0.977998 0.185446
vn 0.095410 -0.978833 0.181062
vn 0.100245 -0.871977 0.479173
vn 0.100254 -0.876849 0.470197
vn 0.100430 -0.640585 0.761292
vn 0.100558 -0.655059 0.748856
vn 0.995306 0.086575 -0.043260
vn 0.995306 0.086575 -0.043260
vn 0.995306 0.086575 -0.043260
vn 0.995306 0.086575 -0.043260
vn 0.995306 0.086575 -0.043260
vn 0.995306 0.086575 -0.043260
vn 0.995306 0.086575 -0.043260
vn 0.995306 0.086575 -0.043260
vn 0.995306 0.086575 -0.043260
vn 0.995306 0.086575 -0.043260
vn 0.995306 0.086575 -0.043260
vn 0.995306 0.086575 -0.043260
vn 0.995306 0.086575 -0.043260
vn 0.995306 0.086575 -0.043260
s off
g gebouw3
usemtl initialShadingGroup
f 36/21/1 37/22/2 30/23/3 80/24/4 31/164/5 32/165/6 33/166/7
f 3/1/8 4/2/9 83/3/10 6/4/11 5/5/12
f 22/12/13 23/13/14 24/14/15 25/15/16
s 1
f 58/25/17 1/26/18 53/27/19 26/28/20 27/29/21 52/30/22 17/31/23 57/32/24 18/33/25 7/34/26
f 55/47/27 50/46/28 33/45/29 32/53/30 49/54/31 3/55/32 5/56/33 10/49/34 9/48/35
s off
f 5/16/36 6/17/37 11/18/38 10/19/39
f 10/19/40 11/18/41 68/20/42 14/171/43 13/172/44
s 3
f 20/58/45 21/59/46 8/60/47 15/61/48
s 1
f 7/34/26 18/33/25 19/42/49 16/43/50
f 51/38/51 36/37/52 33/45/29 50/46/28 55/47/27 9/48/35 10/49/34 34/41/53 35/40/54 56/39/55
f 41/50/56 34/41/53 10/49/34 13/57/57
s 4
f 13/172/58 14/171/59 65/173/60 67/174/61 40/175/62 41/176/63
s 3
f 67/62/64 65/63/65 14/64/66 68/65/67 11/66/68 64/67/69 139/68/70 72/69/71 73/70/72 74/71/73 75/72/74 137/73/75 134/74/76 136/75/77 69/76/78 131/77/79 132/78/80 133/79/81 70/80/82 135/81/83 130/82/84 129/83/85 128/84/86 127/85/87 126/86/88 125/87/89 142/88/90 66/89/91 39/90/92 71/91/93 40/92/94
s off
f 19/177/95 20/178/96 23/13/97 22/12/98
s 3
f 20/58/45 15/61/48 24/93/99 23/94/100
s 1
f 16/43/50 19/42/49 22/51/101 25/52/102
s 3
f 62/95/103 63/96/104 59/97/105 8/60/47 21/59/46
f 82/98/106 117/99/107 105/100/108 106/101/109 107/102/110 108/103/111 109/104/112 79/105/113 12/106/114 11/66/68 6/107/115 83/108/116 4/109/117 78/110/118 48/111/119 76/112/120 31/113/121 80/114/122 30/115/123 77/116/124 116/117/125 115/118/126 114/119/127 113/120/128 112/121/129 111/122/130 110/123/131 119/124/132 81/125/133 120/126/134 91/127/135 92/128/136 93/129/137 94/130/138 95/131/139 96/132/140 118/133/141
s off
f 48/6/142 49/7/143 32/8/144 31/9/145 76/10/146
s 1
f 57/32/24 17/31/23 52/30/22 27/29/21 36/37/52 51/38/51 56/39/55 35/40/54 34/41/53 18/33/25
s off
f 43/167/147 42/168/148 44/169/149 45/170/150 46/181/151 47/182/152
s 3
f 38/134/153 62/95/103 21/59/46 39/90/92
f 40/92/94 71/91/93 39/90/92 21/59/46 20/58/45
s 4
f 41/176/63 40/175/62 20/178/154 19/177/155
s 1
f 19/42/49 18/33/25 34/41/53 41/50/56
f 27/29/21 26/28/20 42/35/156 43/36/157
s 3
f 28/135/158 29/136/159 45/137/160 44/138/161
f 29/136/159 37/139/162 46/140/163 45/137/160
s off
f 37/22/164 36/21/165 47/182/166 46/181/167
s 1
f 36/37/52 27/29/21 43/36/157 47/44/168
s off
f 4/2/169 3/1/170 49/7/171 48/6/172 78/11/173
s 3
f 61/141/174 60/142/175 37/139/162 29/136/159
f 54/143/176 61/141/174 29/136/159 28/135/158
f 39/90/92 66/89/91 141/144/177 124/145/178 123/146/179 122/147/180 138/148/181 121/149/182 140/150/183 64/67/69 11/66/68 12/106/114 79/105/113 97/151/184 98/152/185 99/153/186 100/154/187 101/155/188 102/156/189 103/157/190 104/158/191 77/116/124 30/115/123 37/139/162 60/142/175 84/159/192 85/160/193 86/161/194 87/162/195 88/163/196 89/180/197 90/179/198 38/134/153
s 7
f 97/183/199 79/286/200 143/185/201 144/186/202
f 81/187/203 119/188/204 146/189/205 145/190/206
f 117/191/207 82/192/208 147/193/209 148/194/210
f 120/195/211 81/187/203 145/190/206 149/196/212
f 92/197/213 91/285/214 150/199/215 151/200/216
f 93/201/217 92/197/213 151/200/216 152/202/218
f 94/203/219 93/201/217 152/202/218 153/204/220
f 95/205/221 94/203/219 153/204/220 154/206/222
f 96/207/223 95/205/221 154/206/222 155/208/224
f 118/209/225 96/284/223 155/208/224 156/210/226
f 98/211/227 97/183/199 144/186/202 157/212/228
s 10
f 99/213/229 98/211/230 157/212/231 158/214/232
f 100/215/233 99/213/229 158/214/232 159/216/234
f 101/217/235 100/215/233 159/216/234 160/218/236
f 102/219/237 101/217/235 160/218/236 161/220/238
f 103/221/239 102/219/237 161/220/238 162/222/240
f 104/223/241 103/221/239 162/222/240 163/224/242
s 7
f 77/225/243 104/223/244 163/224/245 164/226/246
f 106/227/247 105/228/248 165/229/249 166/230/250
f 107/231/251 106/227/247 166/230/250 167/232/252
f 108/233/253 107/231/251 167/232/252 168/234/254
f 109/235/255 108/233/253 168/234/254 169/236/256
f 79/184/200 109/235/255 169/236/256 143/185/201
f 110/237/257 111/238/258 171/239/259 170/240/260
f 111/238/258 112/241/261 172/242/262 171/239/259
f 112/241/261 113/243/263 173/244/264 172/242/262
f 113/243/263 114/245/265 174/246/266 173/244/264
f 114/245/265 115/247/267 175/248/268 174/246/266
f 115/247/267 116/249/269 176/250/270 175/248/268
f 116/249/269 77/283/243 164/226/246 176/250/270
f 105/228/248 117/191/207 148/194/210 165/229/249
f 82/192/208 118/209/225 156/210/226 147/193/209
f 119/188/204 110/237/257 170/240/260 146/189/205
f 91/198/214 120/195/211 149/196/212 150/199/215
s off
f 144/186/271 143/185/272 169/236/273 168/234/274 167/232/275 166/230/276 165/229/277 148/194/278 147/193/279 156/210/280 155/208/281 154/206/282 153/204/283 152/202/284 151/200/285 150/199/286 149/196/287 145/190/288 146/189/289 170/240/290 171/239/291 172/242/292 173/244/293 174/246/294 175/248/295 176/250/296 164/226/297 163/224/298 162/222/299 161/220/300 160/218/301 159/216/302 158/214/303 157/212/304
s 13
f 64/307/305 140/308/306 178/309/307 177/310/308
s 14
f 139/311/309 64/279/310 177/310/311 179/312/312
s 15
f 66/313/313 142/314/314 181/315/315 180/316/316
s 14
f 131/317/317 69/318/318 182/319/319 183/320/320
f 73/321/321 72/322/322 184/323/323 185/324/324
f 74/325/325 73/321/321 185/324/324 186/326/326
f 75/327/327 74/325/325 186/326/326 187/328/328
f 137/329/329 75/281/327 187/328/328 188/330/330
s 13
f 121/331/331 138/332/332 190/333/333 189/334/334
f 123/335/335 124/336/336 192/337/337 191/338/338
f 124/336/336 141/339/339 193/340/340 192/337/337
s 15
f 125/341/341 126/342/342 195/343/343 194/344/344
f 126/342/342 127/345/345 196/346/346 195/343/343
f 127/345/345 128/306/347 197/305/348 196/346/346
f 128/306/347 129/304/349 198/303/350 197/305/348
f 129/304/349 130/282/351 199/301/352 198/303/350
s 14
f 130/302/353 135/300/354 200/299/355 199/301/356
f 132/298/357 131/317/317 183/320/320 201/297/358
f 133/296/359 132/298/357 201/297/358 202/295/360
f 70/294/361 133/296/359 202/295/360 203/293/362
f 136/292/363 134/291/364 204/290/365 205/289/366
f 135/300/354 70/294/361 203/293/362 200/299/355
f 69/318/318 136/292/363 205/289/366 182/319/319
f 134/291/364 137/329/329 188/330/330 204/290/365
s 13
f 138/332/332 122/288/367 206/287/368 190/333/333
f 122/288/367 123/335/335 191/338/338 206/287/368
s 14
f 72/322/322 139/311/309 179/312/312 184/323/323
s 13
f 140/308/306 121/331/331 189/334/334 178/309/307
f 141/339/339 66/280/369 180/316/370 193/340/340
s 15
f 142/314/314 125/341/341 194/344/344 181/315/315
s off
f 178/309/371 189/334/372 190/333/373 206/287/374 191/338/375 192/337/376 193/340/377 180/316/378 181/315/379 194/344/380 195/343/381 196/346/382 197/305/383 198/303/384 199/301/385 200/299/386 203/293/387 202/295/388 201/297/389 183/320/390 182/319/391 205/289/392 204/290/393 188/330/394 187/328/395 186/326/396 185/324/397 184/323/398 179/312/399 177/310/400
s 21
f 54/350/401 2/252/402 207/253/403 208/254/404
s off
f 84/255/405 60/349/406 209/257/407 210/258/408
s 22
f 60/256/409 61/259/410 211/260/411 209/257/412
f 61/259/410 54/251/413 208/254/414 211/260/411
s 21
f 2/252/402 63/261/415 212/262/416 207/253/403
s 23
f 62/263/417 38/347/418 213/265/419 214/266/420
f 63/348/421 62/263/417 214/266/420 212/262/422
f 85/267/423 84/255/424 210/258/425 215/268/426
f 86/269/427 85/267/423 215/268/426 216/270/428
f 87/271/429 86/269/427 216/270/428 217/272/430
f 88/273/431 87/271/429 217/272/430 218/274/432
f 89/275/433 88/273/431 218/274/432 219/276/434
f 90/277/435 89/275/433 219/276/434 220/278/436
f 38/264/418 90/277/435 220/278/436 213/265/419
s off
f 208/254/437 207/253/438 212/262/439 214/266/440 213/265/441 220/278/442 219/276/443 218/274/444 217/272/445 216/270/446 215/268/447 210/258/448 209/257/449 211/260/450
