# This file uses centimeters as units for non-parametric coordinates.

mtllib gebouw2_kubus.mtl
g default
v 0.125649 10.301037 2.114057
v 4.340030 10.301037 2.114057
v 0.125649 10.301037 -2.087657
v 4.340030 10.301037 -2.087657
v 0.125649 6.738863 2.114056
v 0.125649 6.738863 -2.087658
v 4.340030 6.738863 -2.087658
v 4.340030 6.738863 2.114056
v 0.125649 5.468766 2.114056
v 0.125649 5.468766 -2.087658
v 4.340030 5.468766 -2.087658
v 4.340030 5.468766 2.114056
v 0.125649 6.350284 2.114056
v 0.125649 6.362770 -2.087658
v 4.340030 6.376394 -2.087658
v 4.340030 6.366624 2.114056
v 0.125649 4.274738 2.114056
v 0.125649 4.274738 -2.087658
v 4.340030 4.274738 -2.087658
v 4.340030 4.274738 2.114056
v 0.125649 5.156257 2.114056
v 0.125649 5.168743 -2.087658
v 4.340030 5.182366 -2.087658
v 4.340030 5.172597 2.114056
v 0.125649 0.005034 2.114056
v 4.340030 0.005034 2.114056
v 0.125649 0.005034 -2.087658
v 4.340030 0.005034 -2.087658
v 0.125649 3.963673 2.114056
v 0.125649 3.963673 -2.087658
v 4.340030 3.963673 2.114056
v 4.340030 3.963673 -2.087658
vt 0.209596 0.520010
vt 0.406751 0.520016
vt 0.406745 0.716578
vt 0.209590 0.716572
vt 0.209602 0.353367
vt 0.013035 0.520004
vt 0.013040 0.353361
vt 0.603317 0.353379
vt 0.603312 0.520022
vt 0.406756 0.353373
vt 0.209585 0.883215
vt 0.406739 0.883221
vt 0.453986 0.058610
vt 0.685080 0.058610
vt 0.685080 0.289011
vt 0.453986 0.289011
vt 0.685080 0.009824
vt 0.360973 0.244828
vt 0.312620 0.244828
vt 0.012037 0.024868
vt 0.059587 0.024868
vt 0.059587 0.249921
vt 0.685080 0.338407
vt 0.453986 0.338407
vt 0.075305 0.058062
vt 0.297974 0.058062
vt 0.297974 0.280063
vt 0.075305 0.280063
vt 0.297974 0.011054
vt 0.698555 0.020315
vt 0.746253 0.020315
vt 0.436594 0.242870
vt 0.389687 0.242870
vt 0.389687 0.020864
vt 0.297974 0.327657
vt 0.075305 0.327657
vt 0.802922 0.805892
vt 0.610443 0.805892
vt 0.610443 0.613992
vt 0.802922 0.613992
vt 0.610443 0.986691
vt 0.418456 0.986691
vt 0.418456 0.805892
vt 0.994736 0.986691
vt 0.802922 0.986691
vt 0.994736 0.805892
vt 0.610443 0.433193
vt 0.802922 0.433193
vt 0.698555 0.242319
vt 0.746253 0.242319
vt 0.075305 0.011054
vt 0.436594 0.020864
vt 0.360973 0.019773
vt 0.312620 0.019773
vt 0.453986 0.009824
vt 0.012037 0.249921
vn 0.000000 1.000000 0.000000
vn 0.000000 1.000000 0.000000
vn 0.000000 1.000000 0.000000
vn 0.000000 1.000000 0.000000
vn -1.000000 0.000000 0.000000
vn -1.000000 0.000000 0.000000
vn -1.000000 0.000000 0.000000
vn -1.000000 0.000000 0.000000
vn 0.000000 0.000000 -1.000000
vn 0.000000 0.000000 -1.000000
vn 0.000000 0.000000 -1.000000
vn 0.000000 0.000000 -1.000000
vn 1.000000 0.000000 0.000000
vn 1.000000 0.000000 0.000000
vn 1.000000 0.000000 0.000000
vn 1.000000 0.000000 0.000000
vn 0.000000 -0.000000 1.000000
vn 0.000000 -0.000000 1.000000
vn 0.000000 -0.000000 1.000000
vn 0.000000 -0.000000 1.000000
vn 0.000000 0.000000 1.000000
vn 0.000000 0.000000 1.000000
vn 0.000000 0.000000 1.000000
vn 0.000000 0.000000 1.000000
vn 1.000000 0.000000 0.000000
vn 1.000000 0.000000 0.000000
vn 1.000000 0.000000 0.000000
vn 1.000000 0.000000 0.000000
vn 0.000000 0.000000 -1.000000
vn 0.000000 0.000000 -1.000000
vn 0.000000 0.000000 -1.000000
vn 0.000000 0.000000 -1.000000
vn -1.000000 0.000000 0.000000
vn -1.000000 0.000000 0.000000
vn -1.000000 0.000000 0.000000
vn -1.000000 0.000000 0.000000
vn -0.003555 0.999990 0.002648
vn -0.003555 0.999990 0.002648
vn -0.003555 0.999990 0.002648
vn -0.003555 0.999990 0.002648
vn 0.000000 0.000000 1.000000
vn 0.000000 0.000000 1.000000
vn 0.000000 0.000000 1.000000
vn 0.000000 0.000000 1.000000
vn 1.000000 0.000000 0.000000
vn 1.000000 0.000000 0.000000
vn 1.000000 0.000000 0.000000
vn 1.000000 0.000000 0.000000
vn 0.000000 0.000000 -1.000000
vn 0.000000 0.000000 -1.000000
vn 0.000000 0.000000 -1.000000
vn 0.000000 0.000000 -1.000000
vn -1.000000 0.000000 0.000000
vn -1.000000 0.000000 0.000000
vn -1.000000 0.000000 0.000000
vn -1.000000 0.000000 0.000000
vn -0.003555 0.999990 0.002648
vn -0.003555 0.999990 0.002648
vn -0.003555 0.999990 0.002648
vn -0.003555 0.999990 0.002648
vn 0.000000 0.000000 1.000000
vn 0.000000 0.000000 1.000000
vn 0.000000 0.000000 1.000000
vn 0.000000 0.000000 1.000000
vn 0.000000 0.000000 -1.000000
vn 0.000000 0.000000 -1.000000
vn 0.000000 0.000000 -1.000000
vn 0.000000 0.000000 -1.000000
vn 1.000000 0.000000 0.000000
vn 1.000000 0.000000 0.000000
vn 1.000000 0.000000 0.000000
vn 1.000000 0.000000 0.000000
vn -1.000000 0.000000 0.000000
vn -1.000000 0.000000 0.000000
vn -1.000000 0.000000 0.000000
vn -1.000000 0.000000 0.000000
vn 0.000000 1.000000 0.000000
vn 0.000000 1.000000 0.000000
vn 0.000000 1.000000 0.000000
vn 0.000000 1.000000 0.000000
s off
g gebouw2
usemtl initialShadingGroup
f 1/1/1 2/2/2 4/3/3 3/4/4
f 5/5/5 1/1/6 3/6/7 6/7/8
f 6/11/9 3/4/10 4/3/11 7/12/12
f 7/8/13 4/9/14 2/2/15 8/10/16
f 8/10/17 2/2/18 1/1/19 5/5/20
f 13/13/21 9/55/22 12/17/23 16/14/24
f 16/54/25 12/53/26 11/18/27 15/19/28
f 15/15/29 11/23/30 10/24/31 14/16/32
f 14/20/33 10/21/34 9/22/35 13/56/36
f 13/13/37 16/14/38 15/15/39 14/16/40
f 21/25/41 17/51/42 20/29/43 24/26/44
f 24/50/45 20/49/46 19/30/47 23/31/48
f 23/27/49 19/35/50 18/36/51 22/28/52
f 22/32/53 18/33/54 17/34/55 21/52/56
f 21/25/57 24/26/58 23/27/59 22/28/60
f 29/37/61 25/45/62 26/41/63 31/38/64
f 28/47/65 27/48/66 30/40/67 32/39/68
f 26/41/69 28/42/70 32/43/71 31/38/72
f 27/44/73 25/45/74 29/37/75 30/46/76
f 29/37/77 31/38/78 32/39/79 30/40/80
