%YAML 1.1
%TAG !u! tag:unity3d.com,2011:
--- !u!1001 &4601913040421971776
PrefabInstance:
  m_ObjectHideFlags: 0
  serializedVersion: 2
  m_Modification:
    m_TransformParent: {fileID: 0}
    m_Modifications:
    - target: {fileID: 2579183588201528001, guid: e07772d17ea1d6e4a9c2e8bd739504e6, type: 3}
      propertyPath: enemyScript
      value: 
      objectReference: {fileID: 0}
    - target: {fileID: 2579183588201528002, guid: e07772d17ea1d6e4a9c2e8bd739504e6, type: 3}
      propertyPath: m_RootOrder
      value: 0
      objectReference: {fileID: 0}
    - target: {fileID: 2579183588201528002, guid: e07772d17ea1d6e4a9c2e8bd739504e6, type: 3}
      propertyPath: m_LocalScale.x
      value: 0.5
      objectReference: {fileID: 0}
    - target: {fileID: 2579183588201528002, guid: e07772d17ea1d6e4a9c2e8bd739504e6, type: 3}
      propertyPath: m_LocalScale.y
      value: 0.5
      objectReference: {fileID: 0}
    - target: {fileID: 2579183588201528002, guid: e07772d17ea1d6e4a9c2e8bd739504e6, type: 3}
      propertyPath: m_LocalScale.z
      value: 0.5
      objectReference: {fileID: 0}
    - target: {fileID: 2579183588201528002, guid: e07772d17ea1d6e4a9c2e8bd739504e6, type: 3}
      propertyPath: m_LocalPosition.x
      value: 0
      objectReference: {fileID: 0}
    - target: {fileID: 2579183588201528002, guid: e07772d17ea1d6e4a9c2e8bd739504e6, type: 3}
      propertyPath: m_LocalPosition.y
      value: 0
      objectReference: {fileID: 0}
    - target: {fileID: 2579183588201528002, guid: e07772d17ea1d6e4a9c2e8bd739504e6, type: 3}
      propertyPath: m_LocalPosition.z
      value: -16.06
      objectReference: {fileID: 0}
    - target: {fileID: 2579183588201528002, guid: e07772d17ea1d6e4a9c2e8bd739504e6, type: 3}
      propertyPath: m_LocalRotation.w
      value: 1
      objectReference: {fileID: 0}
    - target: {fileID: 2579183588201528002, guid: e07772d17ea1d6e4a9c2e8bd739504e6, type: 3}
      propertyPath: m_LocalRotation.x
      value: -0
      objectReference: {fileID: 0}
    - target: {fileID: 2579183588201528002, guid: e07772d17ea1d6e4a9c2e8bd739504e6, type: 3}
      propertyPath: m_LocalRotation.y
      value: -0
      objectReference: {fileID: 0}
    - target: {fileID: 2579183588201528002, guid: e07772d17ea1d6e4a9c2e8bd739504e6, type: 3}
      propertyPath: m_LocalRotation.z
      value: -0
      objectReference: {fileID: 0}
    - target: {fileID: 2579183588201528002, guid: e07772d17ea1d6e4a9c2e8bd739504e6, type: 3}
      propertyPath: m_LocalEulerAnglesHint.x
      value: 0
      objectReference: {fileID: 0}
    - target: {fileID: 2579183588201528002, guid: e07772d17ea1d6e4a9c2e8bd739504e6, type: 3}
      propertyPath: m_LocalEulerAnglesHint.y
      value: 0
      objectReference: {fileID: 0}
    - target: {fileID: 2579183588201528002, guid: e07772d17ea1d6e4a9c2e8bd739504e6, type: 3}
      propertyPath: m_LocalEulerAnglesHint.z
      value: 0
      objectReference: {fileID: 0}
    - target: {fileID: 2579183588201528003, guid: e07772d17ea1d6e4a9c2e8bd739504e6, type: 3}
      propertyPath: m_Mesh
      value: 
      objectReference: {fileID: -640227538967972549, guid: 79be508c4f583b040926e54d93d31e45, type: 3}
    - target: {fileID: 2579183588201528004, guid: e07772d17ea1d6e4a9c2e8bd739504e6, type: 3}
      propertyPath: m_Materials.Array.data[0]
      value: 
      objectReference: {fileID: 2100000, guid: 07ce3eb4f44e57e4891b21ca123ee182, type: 2}
    - target: {fileID: 2579183588201528006, guid: e07772d17ea1d6e4a9c2e8bd739504e6, type: 3}
      propertyPath: m_Name
      value: Player Variant
      objectReference: {fileID: 0}
    - target: {fileID: 2579183588201528006, guid: e07772d17ea1d6e4a9c2e8bd739504e6, type: 3}
      propertyPath: m_TagString
      value: Player
      objectReference: {fileID: 0}
    m_RemovedComponents: []
  m_SourcePrefab: {fileID: 100100000, guid: e07772d17ea1d6e4a9c2e8bd739504e6, type: 3}
--- !u!1 &2023908753611562374 stripped
GameObject:
  m_CorrespondingSourceObject: {fileID: 2579183588201528006, guid: e07772d17ea1d6e4a9c2e8bd739504e6, type: 3}
  m_PrefabInstance: {fileID: 4601913040421971776}
  m_PrefabAsset: {fileID: 0}
--- !u!54 &999682019
Rigidbody:
  m_ObjectHideFlags: 0
  m_CorrespondingSourceObject: {fileID: 0}
  m_PrefabInstance: {fileID: 0}
  m_PrefabAsset: {fileID: 0}
  m_GameObject: {fileID: 2023908753611562374}
  serializedVersion: 2
  m_Mass: 0.0000001
  m_Drag: 0
  m_AngularDrag: 0
  m_UseGravity: 0
  m_IsKinematic: 0
  m_Interpolate: 0
  m_Constraints: 126
  m_CollisionDetection: 0
