%YAML 1.1
%TAG !u! tag:unity3d.com,2011:
--- !u!162 &1
EditorUserSettings:
  m_ObjectHideFlags: 0
  serializedVersion: 4
  m_ConfigSettings:
    RecentlyUsedSceneGuid-0:
      value: 56030c00000408585c0b5c7346765d444716407f2a2a77312c2f1932b2e2316e
      flags: 0
    RecentlyUsedSceneGuid-1:
      value: 5a035255570258035d580e7215725b44144f1d7d7a7b7032757d4f65e6e26d69
      flags: 0
    RecentlyUsedSceneGuid-2:
      value: 5155515000000c0f095e5c7b48265a44464f1b282d7073667e704d63b2b6603d
      flags: 0
    RecentlyUsedSceneGuid-3:
      value: 5a5757560101590a5d0c0e24427b5d44434e4c7a7b7a23677f2b4565b7b5353a
      flags: 0
    RecentlyUsedSceneGuid-4:
      value: 5155555f5d01580d5b5b5e71457007444316412b7e2a2267282b456ae6b8646b
      flags: 0
    RecentlyUsedSceneGuid-5:
      value: 065502045150080f5b0c5f70137a594447154e7e7d7c2569782d1b6ae7b5376d
      flags: 0
    RecentlyUsedSceneGuid-6:
      value: 560751555403085d0f5c0e704527084445154c2b297d74627e2a1b37b5b4326d
      flags: 0
    RecentlyUsedSceneGuid-7:
      value: 02080157070451085d080a2140745a44404e4c7c757175667e7f496ab2e26568
      flags: 0
    RecentlyUsedSceneGuid-8:
      value: 500603040754590b0c0d0e7044275a44174e4a7f7c2a20342f701f62bbb8356c
      flags: 0
    RecentlyUsedSceneGuid-9:
      value: 0203570353035f5e5d5e5d7a48715a44414f4c7f2d2e27677f2c4e36b5b8656a
      flags: 0
    vcSharedLogLevel:
      value: 0d5e400f0650
      flags: 0
  m_VCAutomaticAdd: 1
  m_VCDebugCom: 0
  m_VCDebugCmd: 0
  m_VCDebugOut: 0
  m_SemanticMergeMode: 2
  m_DesiredImportWorkerCount: 2
  m_StandbyImportWorkerCount: 2
  m_IdleImportWorkerShutdownDelay: 60000
  m_VCShowFailedCheckout: 1
  m_VCOverwriteFailedCheckoutAssets: 1
  m_VCProjectOverlayIcons: 1
  m_VCHierarchyOverlayIcons: 1
  m_VCOtherOverlayIcons: 1
  m_VCAllowAsyncUpdate: 1
  m_ArtifactGarbageCollection: 1
